<?xml version="1.0" encoding="UTF-8"?>
<svg width="75px" height="20px" viewBox="0 0 75 20" version="1.1" xmlns="http://www.w3.org/2000/svg" >
    <g id="Paint" stroke="none" stroke-width="1" fill="none" fill-rule="evenodd">
        <g id="Artboard" transform="translate(-79.000000, -44.000000)" fill="#000000" fill-rule="nonzero">
            <g id="paint" transform="translate(116.500000, 54.000000) scale(1, -1) translate(-116.500000, -54.000000) translate(79.000000, 44.000000)">
                <path d="M19.5654285,19.8944237 C19.5654285,19.8363193 19.5473596,19.7999144 19.5252751,19.813523 C19.5031913,19.8271308 19.4575598,19.7724953 19.4238728,19.6921105 C19.3883356,19.6073116 19.3335346,19.5459567 19.2933309,19.5459567 C19.2385681,19.5459567 19.2341461,19.5338145 19.2722431,19.4880468 C19.3092744,19.4435607 19.3080504,19.4259785 19.2669631,19.4121949 C19.2248904,19.3980808 19.2267301,19.3781746 19.2755866,19.3189014 C19.3229161,19.2614813 19.3253791,19.239417 19.2859381,19.2261823 C19.2574711,19.2166295 19.2341806,19.1906881 19.2341806,19.1685348 C19.2341806,19.1463815 19.2525999,19.1396059 19.2751126,19.1534785 C19.2985839,19.1679403 19.3055251,19.1513698 19.2913854,19.1146313 C19.2778231,19.0793936 19.2880029,19.0505635 19.3140189,19.0505635 C19.3484814,19.0505635 19.3492884,19.0281627 19.3169889,18.9679982 C19.2813916,18.9016804 19.2855001,18.8854322 19.3378681,18.8854322 C19.3905586,18.8854322 19.3931183,18.8748139 19.3512136,18.8300893 C19.2976089,18.7728755 19.1934917,18.8240324 19.2070862,18.9009132 C19.2105962,18.9207806 19.1916489,18.9450635 19.1649744,18.9548742 C19.1330732,18.9666074 19.1246769,18.9414391 19.1404419,18.8813337 C19.1536247,18.8310756 19.1474994,18.7998243 19.1268324,18.8118865 C19.1061654,18.8239487 19.05199,18.8201523 19.0064432,18.8034502 C18.9407747,18.7793684 18.9600617,18.7668672 19.0996074,18.7430629 C19.2093437,18.7243433 19.2755829,18.6911006 19.2755829,18.654748 C19.2755829,18.6226861 19.3117921,18.5964529 19.3560481,18.5964529 C19.4003026,18.5964529 19.4619998,18.5601714 19.4931518,18.5158281 C19.5490051,18.4363242 19.759911,18.3278331 19.8282757,18.343439 C19.847589,18.3478508 19.9687019,18.3249602 20.0974154,18.2925782 C20.2261288,18.2601955 20.4479278,18.2206058 20.5903017,18.2046006 C20.7326764,18.1885954 20.8595471,18.1587513 20.8722371,18.1382798 C20.8849264,18.1178082 20.9361334,18.1006432 20.9860301,18.100134 C21.0359253,18.0996106 21.1885465,18.0443096 21.3251868,17.9772111 C21.461827,17.9101118 21.6051309,17.8547966 21.6436404,17.8542874 C21.6821499,17.8537639 21.7251736,17.8347856 21.7392481,17.8120797 C21.7533226,17.7893738 21.7438081,17.7707971 21.7181086,17.7707971 C21.6607239,17.7707971 21.6814134,17.586164 21.7392481,17.582153 C21.7620211,17.5805752 21.8623456,17.5559648 21.9621908,17.5274652 C22.0620353,17.4989664 22.1891962,17.4870268 22.2447697,17.5009337 C22.3003425,17.5148407 22.4049787,17.5080225 22.4772944,17.485784 C22.5496094,17.4635454 22.7127486,17.4250632 22.8398255,17.4002688 C23.1885597,17.3322258 23.3747906,17.2753837 23.3747906,17.2369859 C23.3747906,17.1971906 21.250687,17.2249611 20.7247984,17.2716307 C20.4477283,17.2962179 20.3420121,17.289497 20.2279243,17.2400391 C20.1482181,17.2054848 20.0736869,17.1745273 20.0622996,17.1712454 C20.0509131,17.1679627 19.9871437,17.142855 19.9205894,17.1154486 C19.8540352,17.088043 19.7701882,17.0770314 19.7342617,17.0909787 C19.698336,17.1049268 19.1472242,17.123007 18.5095699,17.1311577 C17.8719156,17.1393091 17.2663508,17.1644773 17.1638708,17.1870868 C17.0613908,17.209697 16.7542772,17.2497637 16.4813957,17.276124 C16.2085151,17.302485 15.9495979,17.3430767 15.9060244,17.3663262 C15.8624509,17.3895765 15.7357955,17.3998814 15.6245675,17.3892258 C15.5133395,17.3785694 15.4122891,17.3860552 15.4000101,17.4058665 C15.3877311,17.4256749 15.3603396,17.4311934 15.3391401,17.4181299 C15.3179406,17.4050672 15.3005954,17.4140471 15.3005954,17.4380982 C15.3005954,17.4621434 15.2866206,17.4781306 15.2695401,17.4736246 C15.2006654,17.4554539 14.8451272,17.5305624 14.8451272,17.5632839 C14.8451272,17.6035758 14.5323466,17.6705546 14.4140806,17.6555874 C14.3705791,17.6500838 14.2999802,17.6830408 14.2571949,17.7288288 C14.2144097,17.7746167 14.1475217,17.8142744 14.1085547,17.8169567 C14.0695892,17.8196337 13.925911,17.8258386 13.7892708,17.8307357 C13.6526306,17.8356261 13.4663029,17.8610861 13.3752094,17.887299 C13.284116,17.9135134 13.1391943,17.9454056 13.0531618,17.9581722 C12.9671286,17.9709373 12.9068421,17.9976841 12.9191931,18.0176069 C12.9577341,18.0797828 12.8657226,18.0960684 12.1463348,18.1543994 C12.1081081,18.1574951 12.0801586,18.1776309 12.0842258,18.1991374 C12.0882908,18.2206432 12.0543541,18.2491734 12.0088074,18.2625352 C11.9632606,18.2758985 11.8789517,18.3187365 11.8214544,18.3577325 C11.7462407,18.4087421 11.5894285,18.4360827 11.2624713,18.4551896 C11.0125287,18.4697957 10.7649598,18.479803 10.7123203,18.4774281 C10.6596793,18.4750577 10.5593856,18.5026129 10.4894436,18.5386738 C10.4172119,18.5759148 10.3512344,18.5878806 10.3367159,18.5663726 C10.3010721,18.5135669 10.1552977,18.4628459 10.1872312,18.5143595 C10.2208867,18.5686548 10.1805937,18.5658738 10.070349,18.5062919 C9.84783453,18.3860384 8.79442536,18.4774446 8.68453239,18.6265415 C8.65051015,18.6726996 8.64677965,18.7038381 8.67418014,18.7129444 C8.69774214,18.7207742 8.71701938,18.7436274 8.71701938,18.7637289 C8.71701938,18.7838295 8.69095539,18.7903037 8.65909915,18.7781151 C8.62724216,18.7659265 8.58887742,18.775797 8.57384293,18.8000523 C8.53369319,18.864823 8.78183736,18.8554281 8.91575507,18.7871063 C8.9772513,18.755733 9.11141351,18.7163886 9.21389273,18.6996745 C9.31637345,18.682959 9.43282816,18.6632523 9.47268165,18.6558801 C9.51253514,18.6485072 9.54514213,18.6668095 9.54514213,18.6965518 C9.54514213,18.7348038 9.59663711,18.7466065 9.72111832,18.7368871 C9.85714653,18.7262666 9.88044752,18.7327669 9.82376329,18.7655444 C9.78343055,18.7888628 9.75975531,18.8229818 9.77115006,18.8413649 C9.7957283,18.8810137 9.56422962,18.9208868 9.11604551,18.954199 C8.86439659,18.9729021 8.78226786,18.9654992 8.75437537,18.9215941 C8.72820113,18.8803938 8.71811363,18.8789655 8.71765388,18.9163972 C8.71671638,18.9924001 8.46783721,18.9801247 8.37867949,18.8996786 C8.33703275,18.8621012 8.30295801,18.84893 8.30295801,18.8704111 C8.30295801,18.8941003 8.16855805,18.8983005 7.96135786,18.8810854 C7.77347767,18.8654766 7.48001176,18.8424701 7.30921131,18.82996 C7.13841087,18.8174506 6.93746118,18.7856175 6.86265695,18.7592213 C6.78785197,18.7328245 6.68026901,18.7200661 6.62358253,18.7308705 C6.56689679,18.7416743 6.50876731,18.7315435 6.49440556,18.708389 C6.47835182,18.6824909 6.48917807,18.6791289 6.52249456,18.6996625 C6.55621305,18.7204392 6.56664554,18.7168492 6.55010205,18.6901592 C6.51892231,18.6398592 6.32144212,18.5942949 6.08773019,18.5834792 C5.94986523,18.5771008 5.92135249,18.5609468 5.91760924,18.4871117 C5.91358924,18.4078223 5.94214698,18.395055 6.18674891,18.3667865 C6.33724911,18.3493942 6.50696731,18.3391827 6.56390054,18.3440948 L6.66741626,18.3530276 L6.5575518,18.2934875 C6.36703385,18.1902383 6.18126266,18.1466712 5.81859052,18.1201846 C5.62501708,18.1060481 5.34552517,18.0641418 5.19749846,18.0270601 C4.85703682,17.9417722 3.67567956,17.9352322 3.62415682,18.0183494 C3.60642608,18.0469537 3.57000084,18.0568526 3.5432131,18.0403449 C3.47403312,17.9977178 2.7120566,17.9833644 2.73797584,18.025178 C2.76221884,18.0642884 2.75604934,18.0649501 2.21438976,18.0813419 C1.83209012,18.0929106 1.67072092,18.1070157 1.09829185,18.1788954 C0.837276929,18.2116715 0.684669226,18.1928981 0.535488272,18.1096613 C0.473013291,18.0748019 0.486478037,18.0549757 0.636935491,17.9602787 C0.758290704,17.8838996 0.906547658,17.8389731 1.13033184,17.8107689 C1.51223172,17.7626352 1.87660936,17.7019997 2.13913253,17.6428948 C2.29616298,17.6075412 2.32748297,17.5856885 2.31102873,17.5229577 C2.29921848,17.4779287 2.26694524,17.4554195 2.23288025,17.468453 C2.20096401,17.4806633 2.17485127,17.4700906 2.17485127,17.4449545 C2.17485127,17.4198191 2.20745826,17.3989707 2.24731175,17.3986229 C2.30923698,17.3980995 2.31074148,17.3921772 2.25766399,17.3579722 C2.21838275,17.3326625 2.21410026,17.3177207 2.24601275,17.3173214 C2.27384299,17.3169475 2.28574398,17.2888188 2.27255074,17.2545397 C2.25590374,17.2112882 2.29721673,17.1708625 2.40841995,17.1215892 L2.5682089,17.0507871 L2.16364627,17.0258999 C1.94113634,17.0122113 1.64767043,17.0028934 1.51149972,17.0051928 C1.37532901,17.0074959 1.26391655,17.0070547 1.26391655,17.0042132 C1.26391655,17.0013792 1.30118179,16.9562157 1.34672852,16.9038571 C1.39227526,16.8514971 1.42954125,16.821217 1.42954125,16.8365672 C1.42954125,16.8519181 1.47149998,16.8370906 1.52278272,16.8035653 C1.57406545,16.7700631 1.75415465,16.7212849 1.9229826,16.6951692 C2.09180904,16.669052 2.30373573,16.6217259 2.39392845,16.5899982 C2.48412342,16.5582705 2.62544888,16.5316501 2.7079856,16.530841 C2.93857903,16.5285827 3.51943585,16.3779992 3.35147566,16.3640219 C3.33060016,16.3622871 3.27625443,16.3523149 3.23070694,16.3418656 C3.18516096,16.3314171 3.12514373,16.3178945 3.09733598,16.3118167 C3.00260126,16.2911096 2.99655027,16.2509291 3.08400024,16.2232558 C3.13199722,16.2080672 3.2199692,16.1506396 3.27949443,16.0956384 C3.33901966,16.0406365 3.42930088,15.995636 3.48012087,15.995636 C3.5309401,15.995636 3.59377658,15.9700983 3.61975807,15.9388865 C3.65857956,15.8922491 3.62443807,15.8773036 3.42814888,15.8550127 C3.29678267,15.8400947 3.13340272,15.8188904 3.06508299,15.8078937 C2.90254454,15.7817324 2.25577024,15.7855153 2.21134776,15.8128888 C2.15141678,15.8498187 1.67797792,15.8672341 1.67797792,15.8325094 C1.67797792,15.8142617 1.70592666,15.7762049 1.7400869,15.7479394 C1.77424714,15.7196738 1.80219588,15.6771484 1.80219588,15.653439 C1.80219588,15.6297296 1.78993564,15.622554 1.77495139,15.6374936 C1.7599664,15.652434 1.72270116,15.6439618 1.69213942,15.6186776 C1.66137068,15.5932177 1.63657193,15.5903074 1.63657193,15.6121571 C1.63657193,15.633858 1.60862244,15.6516137 1.5744622,15.6516137 C1.47502048,15.6516137 1.50229872,15.6074021 1.63894943,15.5470948 C1.79262364,15.4792739 1.77061864,15.4508274 1.52287347,15.3970369 C1.29687079,15.3479663 1.2537878,15.2710593 1.41582375,15.2059432 C1.58351545,15.1385538 2.37136696,15.0510884 2.82174182,15.049862 C3.0328465,15.0492638 3.25499644,15.0364471 3.31541042,15.0213295 L3.42525238,14.9938432 L3.30727667,14.8976244 C3.24239044,14.8447036 3.15779422,14.800738 3.11928473,14.7999214 C3.02113826,14.7978426 2.99130702,14.7321768 3.0439525,14.6341029 C3.09954173,14.5305433 3.45971637,14.3443258 3.60442958,14.3443258 C3.66544281,14.3443258 3.7007213,14.3265087 3.6861758,14.3030424 C3.67210056,14.2803372 3.62641207,14.2617597 3.58464533,14.2617597 C3.51449561,14.2617597 3.43649863,14.1586959 3.45186763,14.0863085 C3.46749012,14.0127254 2.81053457,14.095017 2.75555584,14.1735294 C2.7135656,14.2334942 1.65623618,14.3902004 1.55229371,14.351864 L1.45331174,14.3153573 L1.54959671,14.2639813 C1.60255194,14.2357248 1.94656784,14.1626284 2.31407598,14.101545 C2.98657077,13.9897697 3.15024097,13.9108565 2.7095741,13.9108565 C2.5741714,13.9108565 2.44960618,13.8872757 2.40911145,13.8539755 C2.35159396,13.8066793 2.27195749,13.8053722 1.93649684,13.8462182 C1.31965878,13.9213252 0.961173891,13.9729128 0.877104167,13.9986696 C0.821405434,14.0157344 0.804654939,14.0035002 0.814994436,13.9533012 C0.830063432,13.8801398 0.958167142,13.7943 1.15899833,13.7227905 C1.33186353,13.6612396 1.22441031,13.6069713 1.00338313,13.6441988 C0.907555658,13.6603386 0.745304458,13.6866308 0.642824489,13.7026262 L0.456496796,13.7317083 L0.611769999,13.5833501 C0.697170222,13.501754 0.767043201,13.428354 0.767043201,13.4202393 C0.767043201,13.4121253 0.651500486,13.3924531 0.51028228,13.3765242 C0.176388382,13.3388599 -0.00226906257,13.2455373 2.17580149e-05,13.1099966 C0.00125893635,13.0385169 0.269126604,12.9426227 0.518371027,12.9244355 C0.620980746,12.9169489 0.853995174,12.8813074 1.03618212,12.8452337 C1.21836981,12.80916 1.49788423,12.7712857 1.65732593,12.7610689 C1.81676763,12.7508522 2.0589928,12.7229239 2.19560526,12.6990074 C3.04404175,12.550469 3.23499919,12.5139085 3.27156843,12.4930025 C3.29404142,12.4801551 3.22882669,12.4493487 3.12664598,12.4245438 C3.02381951,12.3995819 2.94086428,12.3552371 2.94086428,12.3252308 C2.94086428,12.2557611 3.35819565,12.1048575 3.73695229,12.0373717 C3.92119836,12.0045425 4.05751906,11.955703 4.10215305,11.9065292 C4.14210254,11.8625179 4.28071225,11.8070128 4.4178482,11.7801127 C4.72898936,11.7190823 4.72058711,11.6611962 4.38251196,11.5366477 C4.31002974,11.5099442 4.2591235,11.4666112 4.2693865,11.4403511 C4.29274449,11.380583 4.48466418,11.2893997 4.58710515,11.2893997 C4.62945614,11.2893997 4.65259063,11.2708222 4.63851614,11.2481163 C4.62444089,11.2254112 4.47427894,11.2068337 4.30482324,11.2068337 C4.02562607,11.2068337 3.91351011,11.1646253 4.04847857,11.1103263 C4.16907778,11.0618083 3.56480109,11.0880758 3.26633643,11.1443242 C2.8946568,11.2143726 2.69242761,11.1850528 2.69242761,11.0611173 C2.69242761,11.0039836 2.80058358,10.9289655 3.09885398,10.7792187 C3.3798324,10.638152 3.48846536,10.5643452 3.45080563,10.5400982 C3.3792714,10.4940426 3.44987563,10.446955 3.72758179,10.3555033 C4.1195658,10.2264203 4.43052995,10.0100446 4.38970446,9.89478396 C4.36181947,9.8160607 4.51459892,9.77312175 5.14580548,9.68228319 C5.45955288,9.63713086 5.77376004,9.57158547 5.84404251,9.53662817 C5.91432574,9.50167163 6.06312195,9.46216119 6.17470166,9.44882703 C6.48236807,9.41206089 7.07107064,9.26357558 7.16315111,9.1995145 C7.2080716,9.16826388 7.30123582,9.14138919 7.3701818,9.13979271 C7.43912852,9.13819997 7.53280425,9.12092584 7.57835098,9.10141214 C7.64429246,9.07316081 7.62742122,9.06469312 7.49553901,9.05985133 C7.14261087,9.0468933 6.95533442,9.01220072 6.90854269,8.95111126 C6.8766002,8.90940912 6.82669896,8.89658494 6.76362098,8.9138658 C6.68083451,8.93654703 6.67762751,8.9338461 6.74062449,8.89450092 C6.78088973,8.86935281 6.84610446,8.85406998 6.88554619,8.86053666 C6.92498793,8.86700483 6.98232691,8.8566408 7.01296441,8.83749501 C7.04592315,8.81690453 7.11037213,8.82494526 7.17079361,8.85718592 C7.25038208,8.89965302 7.29020182,8.9009145 7.3512533,8.86290633 C7.40081779,8.83204529 7.43879777,8.8289817 7.45465652,8.8545665 C7.46844302,8.87680729 7.58576248,8.8956622 7.71536469,8.89646679 C7.84496765,8.8972669 7.9975881,8.92447884 8.05452134,8.95692813 C8.17855705,9.02762189 8.22014603,9.0328054 8.22014603,8.97756945 C8.22014603,8.9548643 8.19109704,8.93628681 8.1555928,8.93628681 C8.12008856,8.93628681 8.10124707,8.91982101 8.11372182,8.89969714 C8.12619656,8.87957327 8.09738382,8.85293487 8.04969359,8.84050028 C8.0020041,8.82806643 7.97108011,8.79344414 7.98097561,8.76356267 C7.9992351,8.70842094 8.18470555,8.67611149 8.75842537,8.62812961 C9.27674571,8.58478164 9.42092341,8.56145136 9.42092341,8.52092919 C9.42092341,8.49961488 9.39297467,8.48217624 9.35881518,8.48217624 C9.32430994,8.48217624 9.29670545,8.44548039 9.29670545,8.3996102 C9.29670545,8.33906213 9.32430994,8.31704492 9.40022117,8.31704492 C9.51932938,8.31704492 9.53964088,8.25346989 9.42969091,8.2248028 C9.38896592,8.21418527 9.17934774,8.21541834 8.96387206,8.22753962 C8.336303,8.26285135 8.08526308,8.25110097 7.95397487,8.18027036 C7.88728789,8.14429088 7.82078691,8.12221085 7.80619416,8.13120273 C7.79160217,8.14019462 7.78736167,8.09525316 7.79677116,8.03133415 C7.81730166,7.8918639 7.75906418,7.87011066 7.33392231,7.85845 C7.07947663,7.85146587 7.05972764,7.84520483 7.14815486,7.79951186 C7.29363007,7.72434198 7.82726465,7.61646109 8.14548581,7.59788883 C8.30811801,7.58839744 8.46174046,7.55449674 8.51700344,7.51590531 C8.63463116,7.43376027 8.70551438,7.43273508 8.78504436,7.5120244 C8.8208186,7.54769282 8.92051457,7.57357224 9.02017229,7.57305928 C9.32706019,7.57148149 10.4720736,7.45537892 10.627535,7.41007404 C10.7727095,7.36776771 10.777112,7.36093762 10.7464835,7.22553821 C10.7271845,7.14021965 10.7315263,7.06813654 10.7575288,7.04221151 C10.7870585,7.01276973 10.785785,6.98195655 10.7534338,6.94308994 C10.6545163,6.82425728 10.780349,6.79965504 11.3846163,6.81968245 C11.8541267,6.83524494 12.0005911,6.82671892 12.0958621,6.77827941 C12.1966613,6.72703055 12.6511162,6.65633978 12.9611503,6.64368385 C13.0066971,6.64182939 13.1371265,6.62369607 13.250993,6.60339723 L13.4580237,6.56649126 L13.2716967,6.53646174 C13.169216,6.51994435 12.8617754,6.51590492 12.5884949,6.52748481 C12.3152145,6.53906396 11.9239261,6.54606604 11.7189662,6.54304432 C11.5140063,6.54002335 11.1134014,6.56781107 10.8287345,6.60479555 C10.2654764,6.67797563 9.68460533,6.72916467 9.43454716,6.72765867 C9.34734919,6.72713524 9.26430021,6.74292655 9.24999622,6.7627558 C9.23569147,6.7825843 9.16581849,6.80117824 9.09472302,6.80407583 C9.02362754,6.80697716 8.9654583,6.82472463 8.9654583,6.84352346 C8.9654583,6.86232378 8.92353482,6.8659482 8.87229483,6.85157764 C8.79936411,6.83112476 8.79261936,6.83486583 8.84123959,6.86880541 C8.89478058,6.90617799 8.89335183,6.9122476 8.83088885,6.91279198 C8.79103536,6.91316586 8.75842762,6.93413769 8.75842762,6.95945479 C8.75842762,6.98772482 8.71904813,6.97976037 8.65636915,6.93881347 C8.54302243,6.86476748 8.49332595,6.85314122 8.52778544,6.90873086 C8.54025944,6.92885473 8.51341019,6.95498166 8.46811921,6.96679037 C8.42098997,6.9790784 8.38576698,6.96784472 8.38576098,6.94052137 C8.38575348,6.91288171 8.32038125,6.89278252 8.23048778,6.89278252 C8.13180056,6.89278252 8.07875833,6.91086723 8.08491883,6.94241321 C8.09159382,6.9765704 8.04696959,6.98596233 7.94179712,6.97253695 C7.76942467,6.9505332 7.59937348,6.85434213 7.59842248,6.77830409 C7.59797248,6.74580021 7.58340673,6.7498389 7.55765024,6.78957591 C7.52649675,6.83763854 7.51737,6.82547987 7.516878,6.73525822 C7.516068,6.58636014 7.58428948,6.45931551 7.6650637,6.45931551 C7.69976619,6.45931551 7.71664419,6.44073802 7.70256969,6.41803287 C7.68849445,6.39532697 7.71068619,6.37532798 7.75188368,6.37359092 C7.88832964,6.36783312 7.97498911,6.34282036 8.06724808,6.28254971 C8.14997081,6.22850869 8.344364,6.24930928 8.344364,6.31220086 C8.344364,6.32357138 8.319401,6.32332387 8.28888951,6.31160264 C8.25837802,6.29993002 8.20713804,6.32265611 8.1750223,6.36210598 C8.12470181,6.42392003 8.12475731,6.42895025 8.1754723,6.39849525 C8.22069128,6.37131696 8.22753803,6.38063935 8.20512429,6.43887384 C8.18769204,6.48416825 8.19734229,6.52810322 8.22914303,6.5482211 C8.30836101,6.59833635 8.37506224,6.58890927 8.30300601,6.53778229 C8.25627127,6.50462113 8.28026227,6.4991759 8.39992473,6.51578527 C8.4878802,6.52799255 8.59278117,6.51679476 8.63464766,6.49072541 C8.69194764,6.45504727 8.72507888,6.45578606 8.77097886,6.49376881 C8.8198751,6.53422891 8.83783159,6.52975129 8.86372684,6.47064416 C8.88138858,6.43032913 8.89288083,6.38341207 8.88926508,6.3663832 C8.88565008,6.34935359 8.90908832,6.33542122 8.94135031,6.33542122 C8.97361305,6.33542122 9.00711254,6.31417421 9.01579454,6.28820655 C9.02447579,6.2622389 9.08624277,6.23518025 9.15305275,6.22807872 C9.21986273,6.22097495 9.2953427,6.18677963 9.3207872,6.1520863 C9.34623244,6.11739221 9.38215143,6.10265226 9.40060817,6.11932743 C9.41906492,6.13600261 9.42246466,6.11713648 9.40816517,6.0774047 C9.37615743,5.98846845 9.4553529,5.98015479 9.48949589,6.06886447 C9.51119564,6.125246 9.52295038,6.1245087 9.59171261,6.0624636 C9.66511734,5.99623101 9.66944334,5.9967021 9.67004184,6.07100009 C9.67056684,6.13688946 9.67718184,6.13960235 9.71081408,6.08771938 C9.77065131,5.99540622 9.76211181,5.97529881 9.65128884,5.94756792 C9.58100412,5.92997972 9.55235112,5.89591825 9.55692462,5.83539186 C9.56421462,5.73897123 9.70844783,5.66689261 9.87463278,5.67662702 C10.0295347,5.68570414 10.1662814,5.6325754 10.1662814,5.56331959 C10.1662814,5.51873781 10.2074347,5.50565565 10.3215554,5.51396258 C10.4884363,5.52610629 10.7691883,5.47964088 10.8701855,5.42315691 C10.9203417,5.39510823 10.9163577,5.3878063 10.8494832,5.38521379 C10.8039357,5.38346402 10.673507,5.37329665 10.5596398,5.36265296 C10.2075487,5.32974454 9.73921132,5.33077795 9.57025887,5.36484391 C9.4542729,5.38822579 9.41709617,5.3842903 9.43783891,5.35082704 C9.45565215,5.32209191 9.44445391,5.3128069 9.40854392,5.32654635 C9.37448418,5.33957766 9.31952195,5.30178783 9.27582471,5.23529576 C9.22247648,5.15411833 9.21546323,5.11708075 9.25119097,5.10520324 C9.28474071,5.0940563 9.27662796,5.06943238 9.22648672,5.03021507 C9.15843775,4.97699509 9.16282524,4.97373484 9.27605046,4.99334873 C9.34436944,5.00518586 9.37697718,5.00392288 9.34851094,4.99053713 C9.24364672,4.94124965 9.30140045,4.89052348 9.4623669,4.89052348 C9.56692437,4.89052348 9.62822485,4.90955038 9.6286246,4.94212604 C9.6290746,4.98009832 9.6386626,4.97893405 9.66485559,4.9377217 C9.68721983,4.9025311 9.71013158,4.89732815 9.72649432,4.92372278 C9.75429006,4.96856329 9.80700005,4.96507646 9.93641551,4.90983677 C9.98079449,4.89089437 10.0783485,4.87415414 10.1532007,4.87263842 C10.3248134,4.86916879 10.3805316,4.76667705 10.2108067,4.76667705 C10.1436809,4.76667705 10.0819875,4.73983376 10.0684845,4.70475308 C10.0524015,4.66296869 10.0704945,4.64282837 10.1241067,4.64282837 C10.1678062,4.64282837 10.2184627,4.61960726 10.2366742,4.59122581 C10.2841589,4.5172202 10.4529006,4.42956188 10.4963428,4.45633264 C10.5166168,4.46882331 10.5449068,4.46017615 10.5592116,4.4370874 C10.5735156,4.41401509 10.6366363,4.39513102 10.6994788,4.39513102 C10.7623213,4.39513102 10.9149417,4.36496166 11.0386354,4.32809159 C11.2338746,4.26988776 11.2514171,4.25651696 11.1716591,4.22669008 C11.1211294,4.20779554 10.7753952,4.19485172 10.4033609,4.19793027 C10.0313272,4.2010335 9.70258958,4.18853161 9.67283409,4.17019565 C9.6420226,4.15120913 9.60653636,4.15653247 9.59040161,4.18256219 C9.55713012,4.23623456 8.26997077,4.27692348 8.23797803,4.22531046 C8.22673178,4.20716742 8.18861604,4.20338447 8.15327605,4.21690856 C8.10975732,4.23355831 8.10402957,4.25074122 8.13552731,4.27014723 C8.16110605,4.28590938 8.12540231,4.29880535 8.05618633,4.29880535 C7.98697111,4.29880535 7.93033937,4.28104965 7.93033937,4.2593465 C7.93033937,4.2376441 7.90193988,4.24339068 7.86722914,4.27211161 C7.83251915,4.30083179 7.79087392,4.31112478 7.77468367,4.29498277 C7.75849493,4.27884075 7.79155267,4.23049472 7.84814615,4.18754605 L7.95104237,4.10945016 L7.84752665,4.12929137 C7.75681643,4.14667468 7.75425518,4.14427585 7.82682441,4.10989957 C7.94624162,4.05333484 8.14249331,4.05918835 8.25753577,4.12275141 C8.36966149,4.18470155 8.51002545,4.16428755 8.51002545,4.08603164 C8.51002545,4.04998335 8.59178517,4.03379049 8.77916511,4.03273539 C8.94802981,4.03178573 9.04830553,4.04811768 9.04830553,4.07657539 C9.04830553,4.10152384 9.07159602,4.09149406 9.10006226,4.05428824 C9.13744825,4.005424 9.24955447,3.97928137 9.50377289,3.9601453 C9.69734633,3.94557359 9.97333575,3.90744428 10.1170822,3.87541224 C10.2608294,3.84338394 10.4378399,3.81538984 10.5104406,3.81321011 C10.5830406,3.81101915 10.7356048,3.7838805 10.849472,3.75287814 C11.0436087,3.70002307 11.0216884,3.69791288 10.4975196,3.71903127 C10.1900789,3.73141652 9.91058776,3.74185532 9.87642827,3.74222771 C9.84226804,3.74260159 9.41371367,3.78645431 8.92408682,3.83967428 C8.43445922,3.89289799 7.90065438,3.94211966 7.73785493,3.94905294 C7.57505548,3.95599221 7.45038377,3.97559414 7.46080727,3.992623 C7.47123076,4.00965187 7.39947079,4.023662 7.30133932,4.02374949 C7.20320935,4.02374949 6.95522492,4.05083431 6.75026499,4.08372403 C6.39879859,4.14012799 5.57203785,4.19829518 5.68431506,4.15871595 C5.71292381,4.14863532 5.7257983,4.12339075 5.71292606,4.10262605 C5.70005381,4.0818621 5.74186105,4.06397853 5.80583153,4.0628868 C5.86980276,4.06182497 5.98735697,4.02565555 6.0670632,3.9825678 C6.14677092,3.93948379 6.24925014,3.88690615 6.29479763,3.86573316 C6.44450508,3.79613039 8.88659433,3.39333 9.4623669,3.34327158 C9.6331666,3.32842245 10.1269342,3.27947073 10.5596286,3.23449861 C10.9923229,3.1895235 11.563426,3.13470106 11.8287467,3.11266965 C12.0940681,3.09063075 12.4008015,3.04570275 12.5103757,3.01282724 C12.6543172,2.96963704 12.7175257,2.96582568 12.7381536,2.99910275 C12.7643061,3.04129542 13.19993,3.02974319 13.7271978,2.97287936 C13.8069048,2.9642808 14.0584472,2.94564199 14.2861809,2.93145688 C14.6948175,2.90600443 15.3173984,2.82036882 15.6658737,2.74168594 C15.7642775,2.71946832 15.8622304,2.71203404 15.8835469,2.72516779 C15.9048634,2.73830454 16.1933478,2.70811276 16.5246235,2.65808051 C17.0147738,2.58404872 17.1445875,2.57652022 17.2216935,2.61766901 C17.2992262,2.6590369 17.3985225,2.65209614 17.7681043,2.57948137 C18.3833202,2.45860058 19.1861124,2.30145315 19.586166,2.22359131 C19.768353,2.18813077 20.0330407,2.1327677 20.1743616,2.10056816 C20.3156818,2.06836414 20.492693,2.0421086 20.56772,2.04221852 C20.6427462,2.04221852 20.7879784,2.0156706 20.8904591,1.98297006 C21.0631691,1.92786273 21.4167775,1.86668653 22.3603769,1.72867143 C22.8451363,1.65776905 22.9427878,1.6414042 23.4369364,1.54827298 C23.66467,1.50535348 24.0373247,1.43957703 24.2650584,1.40210051 C24.492792,1.36462474 24.7350187,1.32475014 24.8033384,1.31348954 C25.2868025,1.23382783 25.3788748,1.23530691 25.475027,1.32429774 C25.526906,1.37231402 25.5693514,1.43269085 25.5693514,1.45846783 C25.5693514,1.48424555 25.5833262,1.5031371 25.6004067,1.50044963 C25.6174864,1.49778759 25.6740402,1.49778759 25.7260819,1.50044963 C25.8052069,1.50453243 25.8139219,1.51796828 25.7792959,1.58247354 C25.7286072,1.67690811 25.7691544,1.72784291 25.8450334,1.66505677 C25.9304096,1.59441311 25.9109673,1.657953 25.8127451,1.77058369 C25.7612216,1.82966391 25.6577397,1.88263487 25.5625107,1.89867519 C25.423472,1.92209745 25.4076057,1.93500763 25.4521272,1.98849081 C25.5189477,2.0687627 25.4624967,2.07374282 28.1158287,1.75365278 C28.2980156,1.73167296 28.6240893,1.70478182 28.8404364,1.6938936 C29.0567829,1.68300613 29.4480713,1.65454094 29.7099644,1.63064011 C29.9718576,1.60674302 30.3165642,1.57983018 30.4759782,1.57083382 C30.6353914,1.56184119 30.8395038,1.53523419 30.9295601,1.51170949 C31.019617,1.48818852 31.3768869,1.46779695 31.7234918,1.46640237 C32.0700982,1.46501153 32.3783864,1.45558744 32.4085776,1.44546643 C32.4830833,1.42049554 33.453364,1.36981723 33.6842402,1.37883902 C33.7863287,1.38283956 33.8983516,1.41179828 33.9331794,1.44322089 C34.0112124,1.5136305 34.2099533,1.52068791 35.1341675,1.48588092 C35.5590094,1.46987425 35.9491683,1.43348648 36.0772787,1.39791676 C36.2444439,1.3515022 36.5217113,1.33879617 37.2573531,1.34384209 C37.7862177,1.34749119 38.6661107,1.33641678 39.2126715,1.31928771 C40.3202854,1.28456896 40.2610669,1.28417414 41.4071963,1.33377941 C42.1492521,1.3658952 42.577346,1.36722846 43.2290665,1.33945495 C43.342933,1.33460195 43.4034895,1.32213371 43.363636,1.31174949 C43.3237832,1.30136975 43.2911755,1.27345267 43.2911755,1.24971934 C43.2911755,1.22125116 43.4074022,1.21474859 43.6327764,1.23061318 C43.8206566,1.24384116 44.3842972,1.27348857 44.885312,1.29649881 C45.3863254,1.31951204 46.0291562,1.35739684 46.3138231,1.38068824 C47.4574887,1.47426812 47.8936571,1.50724981 48.4876434,1.54505385 C49.9731589,1.63961255 50.7562532,1.67728947 51.5724022,1.6934756 C51.9481633,1.70093082 52.4139799,1.71968703 52.6075556,1.73515381 C52.8011268,1.75062359 53.089936,1.76161424 53.2493507,1.75957658 C53.4087624,1.75757257 53.7255203,1.77414156 53.9532555,1.79647582 C54.1809877,1.81881009 54.9185359,1.84526304 55.5922397,1.85526366 C56.2659503,1.86526428 56.8994661,1.89155272 57.0000493,1.91368285 C57.1006363,1.93581297 57.3293202,1.96398205 57.5082401,1.97627905 C57.6871593,1.98857606 57.8921208,2.00819444 57.9637075,2.01987454 C58.2085337,2.05981494 58.5907628,2.08697229 59.1497249,2.1041365 C59.6419452,2.11924884 60.1202058,2.1555237 60.8266704,2.23133367 C60.9405398,2.24354693 61.0989188,2.25872881 61.1786243,2.26506314 C61.2583305,2.27140419 61.4632912,2.28850783 61.6340916,2.30308328 C61.8048928,2.31765872 62.0936757,2.34094639 62.2758327,2.35483913 C62.4579859,2.36872438 62.6163648,2.38581232 62.6277828,2.39280767 C62.6392016,2.39980676 62.7545065,2.41674888 62.884021,2.43048085 C63.0135347,2.44420609 63.1467954,2.46587933 63.1801464,2.47864368 C63.2135041,2.49140505 63.4056623,2.50737882 63.6071633,2.5141446 C64.1605956,2.53271835 64.1598673,2.53260469 64.1598673,2.59933081 C64.1598673,2.63338929 64.1795983,2.66125477 64.2037131,2.66125477 C64.2278361,2.66125477 64.2340941,2.63952321 64.2176256,2.61296033 C64.1972128,2.58002649 64.2106881,2.57345812 64.2599743,2.59231677 C64.2997378,2.60753081 64.373357,2.61997437 64.423583,2.61997437 C64.4852157,2.61997437 64.5169265,2.64681093 64.521134,2.70253891 C64.528589,2.80122752 64.506119,2.80596312 64.423088,2.72317949 C64.336421,2.63676994 64.2394663,2.64324708 64.268588,2.73350089 C64.2829288,2.77795481 64.278446,2.7879988 64.2569346,2.75961062 C64.2331093,2.72817007 64.1164708,2.72226646 63.8907277,2.74108099 C63.502137,2.77346373 63.2088279,2.76455111 62.669245,2.7039664 C62.4528994,2.67967523 62.1734067,2.64981172 62.0481515,2.63759846 C61.9229008,2.62539268 61.7986671,2.6083197 61.7720908,2.5996516 C61.7455078,2.59099098 61.7129113,2.61207722 61.6996618,2.64650734 C61.6818163,2.69287778 61.6424961,2.70187415 61.5480689,2.68119394 C61.3997497,2.64871325 61.3044142,2.63636465 60.9094853,2.5984649 C60.7500699,2.58316636 60.6084932,2.56381568 60.5948732,2.55546538 C60.5658474,2.53767305 60.0120304,2.53474779 59.2532383,2.54838404 C58.7718067,2.55702971 58.4323583,2.53339957 58.1790909,2.47360748 C58.0363817,2.43991765 57.0380105,2.4253422 57.0380105,2.456954 C57.0380105,2.47320967 57.1637817,2.49992883 57.3175024,2.51633406 C57.4712231,2.53274228 57.6342603,2.55348829 57.6798063,2.56244503 C57.9993032,2.62527454 58.8549622,2.69569162 59.5430833,2.71578782 C59.702495,2.7204464 59.8526262,2.73682995 59.8767049,2.75220102 C59.9167429,2.77776338 61.1846595,2.87633833 61.2526905,2.8591816 C61.2688845,2.85509132 61.4218837,2.86474497 61.5926841,2.880632 C61.8567448,2.90518638 62.5310816,2.95460172 62.7003003,2.96179822 C62.7614755,2.96439296 62.7686898,3.01768323 62.7125425,3.0522786 C62.6722518,3.07710666 62.3601304,3.08283903 62.0776722,3.06393702 C61.9914223,3.05816426 61.9057145,3.02899169 61.8872023,2.99910649 C61.8621643,2.95868003 61.7910133,2.95192921 61.6092479,2.97274102 C61.4748854,2.98812704 61.3524794,3.00810285 61.3372342,3.01713586 C61.3219927,3.02617261 61.2812587,3.00538248 61.2467107,2.97094115 C61.2121657,2.9365028 61.1740433,2.92422748 61.1619915,2.94367387 C61.1386013,2.98140164 60.3028788,2.9653329 60.0606596,2.92250014 C59.9809504,2.90840327 59.8404574,2.89303893 59.7484467,2.88835791 C59.656436,2.8836769 59.5399813,2.8578745 59.48966,2.83102299 C59.4164983,2.79198813 59.3981585,2.79325185 59.3981585,2.83732665 C59.3981585,2.86977145 59.3427988,2.89689964 59.2635906,2.90327509 C58.9361872,2.92961439 58.4779223,2.92711685 58.1145714,2.89701629 C57.8532325,2.87536848 57.7416551,2.87807389 57.782122,2.90509665 C57.9453385,3.01405582 57.6391203,3.06779399 57.1622292,3.0138771 C56.7394574,2.96607544 56.6638821,2.96355995 56.4811612,2.99120634 C56.3868915,3.00547147 56.254686,3.00242657 56.187369,2.98443906 C56.0100458,2.93706811 55.0883299,2.85317779 54.6778625,2.84705508 C54.4842868,2.84416871 54.2047949,2.82909824 54.0567689,2.81357687 C53.908743,2.79805625 53.6106181,2.77581994 53.3942716,2.76416527 C53.1779252,2.75251059 52.6655231,2.71566295 52.255601,2.68228045 C51.8456834,2.6488972 51.2359643,2.60909887 50.9006724,2.59384445 C50.3542893,2.56898349 50.2883133,2.57323678 50.2645969,2.63485491 C50.2420421,2.69346029 50.1700781,2.70334351 49.7769545,2.70184723 C49.5232986,2.70089757 49.2319192,2.71515895 49.1294392,2.73357567 L48.9431108,2.76706809 L49.2536579,2.81309905 C49.4244584,2.83841615 49.6294191,2.85862227 49.7091253,2.85799788 C49.7888308,2.85732489 50.1149052,2.8856338 50.4337316,2.92079449 C50.7525587,2.95595219 51.358125,3.00546249 51.7794321,3.03081249 C52.2007393,3.05615951 52.5868939,3.08578897 52.6375481,3.09665849 C52.6882099,3.10752801 53.1074477,3.13450665 53.5691881,3.15660761 C54.3990591,3.19633639 54.9805429,3.22875502 55.423171,3.25998022 C55.5484262,3.26881582 55.9781086,3.29485675 56.378022,3.31785503 C56.7779384,3.34085032 57.1319622,3.36793888 57.164738,3.37804867 C57.1975212,3.3881592 57.2616042,3.41048225 57.3071502,3.42765394 C57.3526954,3.44482563 57.4615954,3.4640275 57.5491459,3.4703364 C57.6366918,3.47664754 57.7299296,3.51125563 57.7563333,3.5472568 C57.7944558,3.59923848 57.9023268,3.6149094 58.2803514,3.62338383 C58.5421591,3.62925379 58.7749965,3.64548479 58.797771,3.65943959 C58.8205455,3.67339813 58.9789244,3.69572118 59.1497249,3.70904486 C59.9662144,3.77274029 60.7824286,3.8244737 61.157919,3.83632952 C61.3856542,3.84352303 61.8701075,3.88184527 62.2344799,3.92149703 C62.5988523,3.96114581 63.0646727,3.99975295 63.2696334,4.00728968 C64.6882069,4.05945007 65.8211753,4.12513903 66.4164981,4.18974 C66.6214596,4.21198303 66.9807117,4.24212696 67.2148376,4.25672858 C67.4489673,4.27133319 67.6503685,4.29916278 67.6623985,4.31856879 C67.6744293,4.33798228 67.6226208,4.35536933 67.5472585,4.35721631 C67.4719031,4.35907824 67.3576459,4.36437243 67.2933536,4.36903175 C67.2290614,4.37368285 67.1683624,4.36442552 67.1584564,4.34845025 C67.1485572,4.33247947 67.0716132,4.33836514 66.9874647,4.36152867 C66.9020645,4.38503842 66.7147115,4.39160381 66.5633781,4.37639276 C66.4142751,4.3614008 65.6215021,4.34186692 64.8016624,4.33297599 C63.9818189,4.32408954 63.0035994,4.30482187 62.6278383,4.29016267 C61.9580638,4.26403051 61.7682718,4.28001549 62.2076442,4.32554619 C62.3295266,4.33817894 62.4382616,4.35750121 62.4492769,4.36848439 C62.4788081,4.39792766 62.3273989,4.47077274 62.2018032,4.48753914 C62.0554542,4.50707975 62.0092752,4.55937623 62.1344127,4.5638561 C62.1894507,4.5658302 62.4767066,4.58475166 62.7727585,4.60591417 C63.0688142,4.62707669 63.651087,4.65536615 64.0667031,4.66878406 C64.7499132,4.69083791 64.8223646,4.7001117 64.8223646,4.76552997 C64.8223646,4.8563319 64.9890566,4.87780473 65.9936385,4.91640888 C66.3987186,4.93197736 66.7398695,4.96038722 66.7517458,4.97954871 C66.7636258,4.99870647 66.8549885,5.01438487 66.9547805,5.01438487 C67.2949504,5.01438487 67.1995961,5.12837874 66.781739,5.22125123 C66.6637933,5.24746266 66.5054144,5.26549278 66.4297881,5.26131202 C65.9254905,5.23344953 66.0577732,5.3147324 66.6235318,5.3803593 C66.851264,5.40677935 67.1680219,5.43739138 67.3274329,5.44838877 C67.4868483,5.45938616 67.7756567,5.48690094 67.9692287,5.50953132 C68.1628044,5.53216544 68.5540927,5.56293375 68.8387596,5.57790401 C69.1893073,5.59634242 69.3696957,5.62258749 69.3977405,5.65922352 C69.4206792,5.68919621 69.5684089,5.72530656 69.7289891,5.74019981 C69.8884038,5.75498313 70.0374663,5.78976096 70.0602408,5.81748437 C70.0830123,5.84520778 70.2377252,5.8804238 70.4040512,5.89574028 C70.5703764,5.91106125 70.7482231,5.95087753 70.7992725,5.98422414 C70.857768,6.0224372 71.0368447,6.05157389 71.2835796,6.06302068 C71.8155845,6.08770592 72.2324044,6.13422591 72.2555118,6.17149754 C72.2797893,6.21066775 71.9172319,6.2666223 71.8615295,6.23230061 C71.8386845,6.21822541 71.820002,6.2243197 71.820002,6.24583591 C71.820002,6.26735586 71.885222,6.29716105 71.9649244,6.3120685 C72.1222894,6.34150205 72.1520419,6.39285784 72.0373894,6.43717193 C71.9020895,6.48946617 72.0914344,6.57229542 72.5171118,6.64702038 C72.8746442,6.70978408 73.1005891,6.78735579 72.9358966,6.79079925 C72.7811042,6.79403708 73.0200691,6.86680663 73.268829,6.89218356 C73.4165115,6.90724879 73.5590039,6.93749516 73.5854714,6.95939572 C73.6119389,6.98129703 73.7514389,7.01813794 73.8954688,7.04126558 C74.2956687,7.10552332 74.2913412,7.15715205 73.8830863,7.18914371 C73.7305514,7.20109599 73.5910964,7.23650793 73.5491564,7.27393584 C73.490319,7.32644992 73.4183715,7.33273265 73.1558041,7.30828445 C72.6218942,7.2585715 72.5161893,7.2682446 72.4360593,7.37415662 C72.3968418,7.42599098 72.3728193,7.48139593 72.3826593,7.49727847 C72.3925068,7.51316026 72.5261343,7.53915783 72.6796142,7.55505009 C72.8330942,7.5709431 72.9773041,7.59852668 73.0000816,7.61634967 C73.0228516,7.63417341 73.1299891,7.66189233 73.2381615,7.67794761 C73.535034,7.72201119 73.474104,7.78033093 73.1311966,7.78033093 C72.9641866,7.78033093 72.8134442,7.79426404 72.7962017,7.81129366 C72.7789667,7.82832177 72.6052892,7.84225489 72.4102593,7.84225489 C72.1636594,7.84225489 72.0502444,7.85797143 72.0378994,7.89385894 C72.0257194,7.92922377 72.0700819,7.94553403 72.1788544,7.94569256 C72.2661543,7.94576584 72.4027968,7.9629637 72.4824993,7.98379122 C72.5622092,8.00461948 72.7851392,8.03341444 72.9779041,8.04777901 C73.1706691,8.06214434 73.349394,8.09128177 73.375074,8.11252878 C73.4007465,8.1337758 73.432614,8.14033594 73.4458815,8.12710722 C73.459149,8.1138785 73.5133365,8.11848698 73.5662939,8.13734937 C73.6406339,8.16382849 73.5965189,8.17763748 73.372734,8.19794156 C73.1086516,8.22190221 72.8074517,8.28214894 72.6481217,8.34288471 C72.5470143,8.38142754 72.7042592,8.42379294 73.1760541,8.48511795 C73.4094765,8.51545854 73.6004639,8.55130343 73.6004639,8.56477069 C73.6004639,8.57823869 73.7215814,8.58156924 73.8696088,8.57217357 C74.0859013,8.55844085 74.1387463,8.56693173 74.1387463,8.61542208 C74.1387463,8.69025248 74.0076913,8.81262058 73.9284538,8.81177038 C73.8797713,8.81124694 73.8803413,8.80422243 73.9316788,8.77111885 C73.9845313,8.73706485 73.9827988,8.73100646 73.9200313,8.73046881 C73.8794638,8.73009493 73.8351689,8.75866631 73.8216089,8.79390252 C73.8006014,8.84848791 73.7257364,8.85477437 73.3156815,8.83638158 C72.8018417,8.81333246 72.6755492,8.84065133 72.7702142,8.95437451 C72.9287641,9.14484985 73.5753164,9.34907809 74.0197813,9.34907809 C74.2883112,9.34907809 74.4285537,9.39914922 74.4285537,9.49502025 C74.4285537,9.54301035 74.3623137,9.55528941 74.1076588,9.55450725 C73.9311613,9.55398381 73.7122289,9.53395641 73.6211339,9.51004211 C73.530039,9.48612857 73.1008366,9.45814643 72.6673517,9.44786017 C71.900777,9.42967077 71.879012,9.43143176 71.8729145,9.5121538 C71.8669145,9.59154557 71.9174569,9.64872571 72.0062944,9.66305664 C72.0290719,9.66672817 72.2076994,9.69979436 72.4032543,9.73653209 C73.0432366,9.85676457 73.6114814,9.93000298 74.1930762,9.96721852 C74.7319136,10.0016972 74.9156785,10.048977 74.8599985,10.1388023 C74.847286,10.1593053 74.8190861,10.1651087 74.7973211,10.1516975 C74.7755561,10.1382864 74.7628661,10.1519219 74.7691286,10.1819865 C74.7754286,10.2122232 74.7483236,10.234129 74.7084911,10.2309988 C74.6688836,10.2278881 74.6454236,10.2397821 74.6563661,10.2574338 C74.6673161,10.2750863 74.6130161,10.3013598 74.5357061,10.3158201 C74.3686062,10.3470745 74.3289837,10.4214876 74.4145662,10.5433136 C74.4601737,10.6082301 74.4650412,10.6469374 74.4325062,10.6860202 C74.3791512,10.7501119 74.4139962,10.7939758 74.5182686,10.7939758 C74.5600211,10.7939758 74.5941761,10.8017451 74.5941761,10.8112402 C74.5941761,10.8207369 74.6065436,10.8606414 74.6216636,10.8999178 C74.6469161,10.9655237 74.6191136,10.969104 74.2800612,10.9439537 C74.0770663,10.9288967 73.8411014,10.9055365 73.7556989,10.8920423 C73.6321289,10.8725166 73.6004264,10.8806523 73.6004264,10.9318975 C73.6004264,10.9673116 73.5703964,11.0130442 73.533684,11.0335263 C73.438899,11.0864142 73.495809,11.3242807 73.6146839,11.3720869 C73.6996739,11.406268 73.6999889,11.4082481 73.6211339,11.4135026 C73.5383189,11.4190211 73.5383189,11.4190211 73.6211339,11.4545004 C73.7019089,11.4891092 73.5890714,11.5039022 73.1656666,11.5142102 C72.9890491,11.5185098 72.8551142,11.5740793 72.8551142,11.6430547 C72.8551142,11.6799151 72.8122142,11.7024093 72.7412492,11.7027608 C72.6786242,11.7031347 72.5850242,11.714639 72.5332518,11.7284682 C72.4449693,11.7520527 72.4436793,11.757059 72.5125518,11.8091574 C72.5529318,11.8397073 72.6369467,11.8652929 72.6992492,11.8660152 C72.7615442,11.866763 72.9354466,11.9323488 73.0856941,12.0118175 C73.2372315,12.0919713 73.419159,12.1563083 73.494279,12.1563083 C73.7452064,12.1563083 74.1366013,12.2088687 74.1173188,12.239975 C74.1067963,12.2569478 74.1298813,12.2682877 74.1686188,12.2651747 C74.2073562,12.262064 74.2456962,12.2915282 74.2538112,12.3306551 C74.2726587,12.4214899 74.0281738,12.5780885 73.9020688,12.5559531 C73.8516239,12.5470981 73.8035714,12.5601256 73.7952914,12.5848916 C73.7757689,12.6432914 73.292529,12.6598005 73.0992466,12.6086721 C73.0171666,12.5869607 72.5932667,12.5641613 72.1572544,12.558008 C71.4201171,12.5476043 71.2027529,12.5686801 71.4783621,12.6238338 C71.5409946,12.6363671 71.676077,12.6655322 71.778557,12.6886464 C71.881037,12.7117598 72.0440719,12.7314799 72.1408594,12.7324684 C72.2376468,12.7334629 72.3168393,12.7528443 72.3168393,12.7755494 C72.3168393,12.7982553 72.3460143,12.8168328 72.3816693,12.8168328 C72.4173243,12.8168328 72.4847568,12.8372431 72.5314968,12.8621878 C72.6155792,12.90705 72.6154292,12.9080737 72.5184243,12.9562933 C72.3485643,13.040728 72.4011993,13.1203815 72.6866642,13.2108761 C72.8331317,13.2573079 72.9616966,13.3223291 72.9723616,13.3553654 C72.9830266,13.3884024 73.0082266,13.4262064 73.0283566,13.4393746 C73.0916866,13.4808068 73.0158766,13.6081767 72.9441991,13.5807546 C72.9079816,13.566897 72.8897716,13.5669546 72.9037441,13.5809042 C72.9177166,13.5948336 72.8821817,13.6530568 72.8247692,13.7102901 C72.7492667,13.7855744 72.6714017,13.8162402 72.5432043,13.8211875 C72.4457343,13.8249487 72.3735168,13.840174 72.3827268,13.8550231 C72.3919293,13.8698715 72.2211394,13.8729164 72.0031894,13.8617904 C71.6863295,13.8456155 71.592992,13.8541041 71.5374621,13.9041438 C71.4603471,13.9736337 71.0537047,14.0022798 70.8415883,13.9531658 C70.7605936,13.9344126 70.7014838,13.9402018 70.6838723,13.9686124 C70.6683781,13.9936057 70.6117433,14.0140534 70.5580164,14.0140534 C70.4334467,14.0140534 70.3293399,14.0536536 70.3293399,14.1010365 C70.3293399,14.1213121 70.3563624,14.1379021 70.3893917,14.1379021 C70.4224202,14.1379021 70.4652556,14.1660697 70.4845771,14.2004968 C70.5063774,14.239335 70.6682386,14.2919014 70.9110473,14.3390024 C71.3894421,14.4318009 71.741612,14.5736789 71.708312,14.6601947 C71.6955245,14.6934216 71.658542,14.7104632 71.626142,14.6980652 C71.5937345,14.6856673 71.5776321,14.6923224 71.590352,14.7128381 C71.6030795,14.7333613 71.5646421,14.8080317 71.5049346,14.8787733 C71.4250296,14.9734509 71.3744196,15.0004422 71.3131521,14.9810527 C71.2670196,14.9664563 71.2402972,14.9714753 71.2532122,14.9923095 C71.2660296,15.0129875 71.2117139,15.031737 71.1325064,15.0339758 C71.053302,15.0362116 70.8577125,15.0700009 70.6978613,15.1090567 L70.4072297,15.1800682 L70.4997234,15.2782267 C70.5505899,15.3322146 70.6094401,15.3763851 70.6304971,15.3763851 C70.6515503,15.3763851 70.7327213,15.4066397 70.8108818,15.4436167 C70.9471447,15.5080861 70.950393,15.5147801 70.8900563,15.6065952 C70.8504068,15.6669264 70.8425295,15.7118283 70.868754,15.727989 C70.8916493,15.7420956 70.8984278,15.7729132 70.8838238,15.7964731 C70.8666923,15.8241105 70.844412,15.8194362 70.8210368,15.7832997 C70.7975295,15.7469568 70.7739015,15.7420806 70.7537528,15.7694122 C70.7366723,15.7925802 70.6667993,15.8384123 70.5984796,15.8712631 L70.4742609,15.9309909 L70.6053091,15.945022 C70.7472016,15.9602136 70.823058,16.0661503 70.7202151,16.1054969 C70.6854578,16.1187952 70.6467166,16.1194091 70.6341338,16.1068579 C70.6215473,16.0943096 70.5492279,16.1187765 70.4734224,16.1612272 C70.3976162,16.2036786 70.2647807,16.2516567 70.1782345,16.2678443 C70.09168,16.2840327 69.9957805,16.3222914 69.9651213,16.3528653 C69.8924801,16.4252834 69.8640506,16.4236877 69.4793134,16.3255808 C69.1340278,16.2375344 69.0367003,16.2457419 68.8950314,16.3748458 C68.8151167,16.4476715 68.7828719,16.4512585 68.5665292,16.4113847 C68.2827413,16.35908 67.7481032,16.35238 67.7785607,16.4015097 C67.7902682,16.4203967 67.9357712,16.4589583 68.1019029,16.4872014 C68.5251585,16.5591589 68.5727917,16.5746159 68.5032885,16.6174442 C68.3828085,16.6916824 68.9222924,16.8669309 69.4495332,16.9248274 C69.5919087,16.9404617 69.7174271,16.9678187 69.7284611,16.9856215 C69.7394989,17.0034251 69.7094479,17.0675221 69.6616864,17.1280604 C69.5814717,17.2297356 69.5799334,17.243736 69.6415481,17.3116152 C69.6782321,17.3520319 69.7082501,17.3952602 69.7082501,17.4076791 C69.7082501,17.4586984 69.0071031,17.3852836 68.7766102,17.3101301 C68.4451673,17.2020608 67.7740382,17.1231865 67.7120237,17.185014 C67.67923,17.217716 67.6789368,17.2457983 67.7109962,17.2843225 C67.7542937,17.3363378 67.820695,17.3585876 68.3728898,17.5061128 C68.5450965,17.5521198 68.6316757,17.596054 68.6316757,17.6374294 C68.6316757,17.6897199 68.58282,17.6951935 68.3244578,17.6718513 C68.1276271,17.6540686 68.0077262,17.6594391 67.9907634,17.6867983 C67.9762059,17.7102849 67.9871034,17.7295025 68.0150394,17.7295025 C68.0429551,17.7295025 68.0561499,17.739118 68.0443614,17.7508699 C68.0166031,17.7785469 67.4301858,17.6558483 67.3718778,17.6101643 C67.3260319,17.5742439 66.7213888,17.4813916 66.5924271,17.490468 C66.5525728,17.4932721 66.5199651,17.5188165 66.5199651,17.5472339 C66.5199651,17.5756512 66.5103269,17.6239419 66.4985489,17.6545465 C66.4781991,17.707418 66.9838662,17.8143096 67.8552324,17.9413318 C67.9861382,17.960414 68.1607689,18.0041568 68.2433018,18.0385376 C68.3258311,18.0729176 68.451636,18.1011502 68.5228672,18.1012773 C68.7103927,18.1016512 68.9797304,18.183373 68.9362169,18.2267576 C68.9160644,18.2468494 68.6639099,18.2685832 68.3758665,18.2750543 C68.0878239,18.2815225 67.8552504,18.2899722 67.8590334,18.2938247 C67.8628059,18.2976757 67.9579869,18.3368893 68.0705199,18.3809619 C68.2664978,18.457711 68.2711816,18.4631981 68.1816286,18.5109833 C68.1114916,18.5484068 68.0365471,18.549844 67.8816984,18.5167262 C67.6296903,18.4628422 67.5965223,18.4621281 67.5965223,18.510587 C67.5965223,18.5314886 67.6522083,18.5607845 67.7202655,18.5756882 C67.9466162,18.6252546 67.8975954,18.6789988 67.6260355,18.6789988 C67.4679858,18.6789988 67.3081646,18.7051848 67.2305276,18.7437987 C67.1519719,18.7828709 67.0638649,18.7970867 67.008611,18.7796024 C66.8904897,18.7422246 64.9464123,18.7279692 64.9691463,18.7646486 C65.0173106,18.8423504 64.4741247,18.8419519 64.0106376,18.7639008 C63.0720129,18.6059249 62.2734169,18.516128 61.7582608,18.5106349 C61.4735902,18.507599 61.0450395,18.4795892 60.8059186,18.4483871 C60.5667977,18.4171859 60.1408023,18.3725046 59.8592637,18.3490943 C59.5777205,18.3256848 59.3354938,18.2993866 59.3209813,18.2906535 C59.3064681,18.2819203 59.1548496,18.2629158 58.9840492,18.2484212 C58.813248,18.2339257 58.6082873,18.2142086 58.5285818,18.2046028 C58.3626586,18.1846083 57.6071988,18.1426108 57.0586625,18.1228885 C56.6618661,18.1086211 56.0589323,18.0706496 55.6508567,18.0342282 C55.5142157,18.0220321 54.9831807,18.0041314 54.4707786,17.9944478 C53.9583802,17.9847635 53.3528139,17.9616142 53.1250825,17.9430053 C52.8973465,17.9243949 52.2675117,17.9110166 51.7254464,17.9132764 C50.9056869,17.9166862 50.733268,17.92762 50.700646,17.978228 C50.667361,18.029853 50.6557772,18.0303443 50.6241992,17.9814733 C50.5994103,17.9431032 50.546134,17.9320191 50.4646158,17.9482748 C50.3971488,17.9617278 50.3219103,17.9524024 50.2969241,17.9274906 C50.2719956,17.9026379 50.1900889,17.8783871 50.1149097,17.8735969 C50.0397267,17.8688037 49.9409487,17.8538881 49.8954027,17.8404417 C49.647266,17.7671831 49.3887284,17.7458808 49.2845707,17.7901111 C49.2009614,17.8256173 48.992265,17.7836729 49.0211002,17.7371559 C49.0317202,17.7200193 48.8321798,17.7010051 48.5776779,17.6949026 C47.8923393,17.6784705 47.8212694,17.6709614 47.7437096,17.6067807 C47.6806587,17.5546098 47.6743677,17.5570094 47.6868439,17.6284644 C47.6963546,17.6829257 47.6808664,17.7040852 47.6387682,17.6941436 C47.6046079,17.6860775 47.5347349,17.6791113 47.483495,17.6786627 C47.4322542,17.678214 47.3903307,17.6635802 47.3903307,17.6461423 C47.3903307,17.6287037 47.360309,17.6029499 47.3236145,17.5889106 C47.2751653,17.5703742 47.2636955,17.5810576 47.2817323,17.6279208 C47.2988495,17.6723889 47.2906258,17.6823536 47.2552858,17.659967 C47.2270805,17.6420977 47.0269934,17.621644 46.8106462,17.6145148 C46.3556588,17.5995206 46.4232915,17.5997158 44.2848727,17.6072316 C43.3853237,17.6103946 42.5341295,17.5995663 42.3933238,17.5831678 C42.2525226,17.56677 42.1059906,17.5653403 42.0676979,17.5799823 C41.9972241,17.6069452 40.6445861,17.6601809 40.2290089,17.652348 C39.9040078,17.6462238 39.5354189,17.8367194 39.7404381,17.904855 C39.7709998,17.9150112 39.7498611,17.9442241 39.6886799,17.9764005 C39.6318089,18.0063089 39.5749334,18.0464616 39.5622869,18.0656269 C39.5165917,18.1348954 39.1649963,18.1735429 39.0651608,18.1202721 C39.0022448,18.0867011 38.8355274,18.0746442 38.573356,18.0847046 C38.355211,18.0930758 37.6386935,18.1097271 36.9810944,18.1217063 C36.3234946,18.1336855 35.7402101,18.1548099 35.6849066,18.168648 C35.6296024,18.1824869 35.3945457,18.1966533 35.1625572,18.2001282 C34.9305673,18.2036053 34.7034936,18.2273267 34.6579462,18.2528479 C34.5764512,18.2985117 34.1924535,18.3734685 34.1281673,18.3562602 C34.0489448,18.3350535 33.9018474,18.3403844 33.7677152,18.3693236 C33.6880075,18.3865207 33.5855282,18.3974778 33.5399807,18.3936739 C33.4944348,18.3898677 33.4199035,18.3834796 33.3743568,18.3794738 C33.3288101,18.3754733 33.1145336,18.3940066 32.8981864,18.4206727 C32.6818393,18.447338 32.4242743,18.468769 32.3258196,18.4682971 C32.2273649,18.4678485 32.1248842,18.4850164 32.0980859,18.5065005 C32.071287,18.5279838 31.9888042,18.5584717 31.9147905,18.5742503 C31.8046455,18.5977324 31.780221,18.5902592 31.780221,18.5330761 C31.780221,18.471185 31.7459671,18.4665466 31.4800261,18.4924305 C31.3149189,18.5085008 30.8817078,18.5259297 30.5173339,18.5311625 C30.15296,18.5363969 29.7544709,18.5624999 29.6318017,18.5891697 C29.509134,18.6158403 29.3997135,18.6376616 29.3886473,18.6376616 C29.3775803,18.6376616 29.3917148,18.6655278 29.4200715,18.6995863 C29.4484223,18.7336448 29.53455,18.7615095 29.6114685,18.7615095 C29.6883869,18.7615095 29.7513202,18.7692795 29.7513202,18.7787747 C29.7513202,18.7882705 29.7626302,18.8254255 29.7764534,18.8613407 C29.8109226,18.9508998 29.6943382,18.946497 29.602332,18.8547603 C29.5502062,18.8027899 29.5254735,18.7971443 29.5130257,18.8343763 C29.503557,18.8626964 29.4787695,18.875368 29.4579413,18.8625334 C29.4371175,18.8497099 29.420076,18.8542384 29.420076,18.8726073 C29.420076,18.8909769 29.3781518,18.9082832 29.3269118,18.9110671 C29.2756718,18.9138488 28.9915224,18.9371544 28.6954682,18.9628521 C28.3994148,18.9885498 27.8031665,19.0170158 27.3704721,19.0261108 C26.9377785,19.0352044 26.5371737,19.0528307 26.4802404,19.0652803 C26.287336,19.1074625 25.2267238,19.2052777 24.6583702,19.233304 C23.6052326,19.2852348 22.8068038,19.4354093 22.6421668,19.6125251 C22.5906681,19.6679278 22.4999294,19.7126621 22.4347679,19.7147738 C21.8989471,19.7321339 21.1548633,19.7877699 20.8283037,19.8348889 C20.6916634,19.8546052 20.4519598,19.8821275 20.2956291,19.8960509 C20.1392984,19.9099743 19.9178204,19.9390586 19.803456,19.9606832 C19.6890908,19.9823071 19.588746,20 19.5804675,20 C19.5721898,20 19.5654165,19.9524601 19.5654165,19.8943564 L19.5654285,19.8944237 Z M19.5654285,19.5188076 C19.5654285,19.4736478 19.5470881,19.4702724 19.4841578,19.5038508 C19.4356006,19.5297609 19.4125471,19.5723132 19.4268841,19.6095639 C19.4453753,19.6576071 19.4640211,19.6610394 19.5081548,19.6245207 C19.5396548,19.5984559 19.5654285,19.5508853 19.5654285,19.5188076 Z M26.5423614,18.9047978 C26.7043531,18.8468677 26.7002664,18.8460212 26.3560337,18.8661458 C25.5677614,18.9122306 25.3208803,18.9355781 25.3208803,18.9640426 C25.3208803,19.0179004 26.3681252,18.9671009 26.5423614,18.9047978 Z M7.30921356,18.4137726 C7.30921356,18.4018386 7.28126407,18.3920756 7.24710383,18.3920756 C7.21294359,18.3920756 7.18499485,18.4161396 7.18499485,18.4455506 C7.18499485,18.4749616 7.21294359,18.4847256 7.24710383,18.4672476 C7.28126407,18.4497696 7.30921356,18.4257056 7.30921356,18.4137726 Z M10.3111581,18.2749072 C10.3256114,18.246667 10.2916994,18.2249077 10.2332324,18.2249077 C10.1762992,18.2249077 10.118202,18.2474069 10.1041267,18.2749072 C10.0896735,18.3031474 10.1235854,18.3249077 10.1820524,18.3249077 C10.2389857,18.3249077 10.2970829,18.3024075 10.3111581,18.2749072 Z M8.34436625,18.0561795 C8.34436625,18.0121101 8.29478826,18.007975 8.20283154,18.0443725 C8.09893107,18.0854991 8.12681756,18.1368082 8.24085053,18.114322 C8.29778451,18.103096 8.34436625,18.076932 8.34436625,18.0561795 Z M31.7734403,18.0482413 C31.9147282,18.0090023 31.9341285,17.9939289 31.8645158,17.9774788 C31.7540295,17.9513705 30.4366407,18.0065452 29.7306329,18.0668517 C29.5387837,18.083239 31.020397,18.1232519 31.3247694,18.1099043 C31.4727969,18.1034137 31.6746983,18.0756641 31.7734403,18.0482413 Z M33.2087479,17.925091 C33.2542953,17.9118003 33.1704476,17.9027974 33.0224209,17.905087 C32.6691088,17.9105542 32.5292518,17.9574688 32.7532805,17.9953796 C32.844374,18.0107943 32.9654877,18.006723 33.0224209,17.9863323 C33.0793541,17.9659417 33.1632019,17.9383825 33.2087479,17.9250919 L33.2087479,17.925091 Z M6.78467123,17.9333466 C6.86992895,17.9308629 6.86937395,17.9287084 6.77363573,17.8905546 C6.66074426,17.845567 6.56390279,17.8679755 6.56390279,17.9390875 C6.56390279,17.9649919 6.59331253,17.9748466 6.62939877,17.9610345 C6.66542051,17.9472463 6.73529349,17.9347874 6.78467123,17.9333466 Z M33.8307699,17.8964341 C33.8418437,17.8816671 33.7681419,17.8654131 33.6669865,17.8603111 C33.5658317,17.8552111 33.4701933,17.8788111 33.4544575,17.9127591 C33.4343485,17.9561411 33.4830168,17.9668751 33.6182402,17.9488811 C33.7240562,17.9348021 33.8196947,17.9112011 33.8307699,17.8964341 L33.8307699,17.8964341 Z M66.2094337,17.412263 C66.2252797,17.378076 66.1592077,17.359543 66.035901,17.363588 C65.8591268,17.369388 65.8507193,17.374849 65.9609963,17.412263 C66.142179,17.473734 66.180942,17.473734 66.2094337,17.412263 Z M2.38964745,16.8028286 C2.35975696,16.7868806 2.32404497,16.7888416 2.31028623,16.8071886 C2.29652673,16.8255346 2.32098197,16.8385826 2.36463121,16.8361856 C2.41286744,16.8335356 2.42267819,16.8204546 2.38964745,16.8028316 L2.38964745,16.8028286 Z M2.8787568,16.7514094 C2.96197303,16.7158764 2.96603277,16.7068904 2.89946055,16.7055854 C2.85391306,16.7046854 2.77938258,16.7253144 2.73383585,16.7514094 C2.62832363,16.8118644 2.73718085,16.8118644 2.8787568,16.7514094 Z M3.43435363,16.754959 C3.47037687,16.7411762 3.49984961,16.696501 3.49984961,16.6556797 C3.49984961,16.5924441 3.47380587,16.5847048 3.32387341,16.6033877 C3.13360972,16.6270971 3.00945251,16.6974506 3.15787522,16.6974506 C3.2066327,16.6974506 3.25804068,16.7160281 3.27211593,16.7387333 C3.30157067,16.7862515 3.34199416,16.7902947 3.43435363,16.754959 L3.43435363,16.754959 Z M70.7019983,16.0481158 C70.7019983,16.0191613 70.6693906,15.995834 70.6295393,15.9962712 C70.5676171,15.9969449 70.5661081,16.0044972 70.6191863,16.0481158 C70.6973288,16.112323 70.7019983,16.112323 70.7019983,16.0481158 Z M4.45995319,14.3671436 C4.43006345,14.3511966 4.39434996,14.3531576 4.38059196,14.3715036 C4.36683322,14.3898496 4.39128846,14.4028966 4.4349377,14.4005006 C4.48317318,14.3978406 4.49298468,14.3847686 4.45995319,14.3671456 L4.45995319,14.3671436 Z M4.12094129,14.2369683 C4.12094129,14.1696821 4.00578108,14.1621155 3.85449713,14.2194624 C3.6898013,14.2818926 3.72888754,14.3258238 3.9346136,14.3095105 C4.05961456,14.2995989 4.12094129,14.275722 4.12094129,14.2369683 Z M4.89004281,14.2689295 C4.84869757,14.1998153 4.70062737,14.1821892 4.70062737,14.2463824 C4.70062737,14.2824063 4.74313885,14.3065433 4.80658583,14.3065433 C4.86486307,14.3065433 4.9024193,14.2896169 4.89004281,14.2689295 L4.89004281,14.2689295 Z M4.57640865,14.2305889 C4.62260714,14.1934242 4.59874215,14.1804217 4.48324443,14.1798274 C4.39784496,14.1793676 4.32797198,14.2022404 4.32797198,14.2305889 C4.32797198,14.2962402 4.49480118,14.2962402 4.57640865,14.2305889 Z M73.617619,9.39911548 C73.617619,9.37161584 73.595121,9.34911548 73.5676144,9.34911548 C73.5401169,9.34911548 73.517619,9.37161584 73.517619,9.39911548 C73.517619,9.42661512 73.5401169,9.44911548 73.5676144,9.44911548 C73.595121,9.44911548 73.617619,9.42661512 73.617619,9.39911548 Z M73.9006213,8.63051535 C73.8721588,8.61520035 73.8255764,8.61520035 73.7971139,8.63051535 C73.7686439,8.64583135 73.7919389,8.65836235 73.8488639,8.65836235 C73.9058038,8.65836235 73.9290913,8.64583135 73.9006213,8.63051535 Z M73.2795315,8.13361882 C73.2282915,8.12045982 73.1444491,8.12045982 73.0932091,8.13361882 C73.0419691,8.14677782 73.0838866,8.15754482 73.1863666,8.15754482 C73.2888465,8.15754482 73.3307715,8.14677782 73.2795315,8.13361882 L73.2795315,8.13361882 Z M71.3644971,7.78951648 C71.3644971,7.77184229 71.2107787,7.73535058 71.0228977,7.70842354 C70.8350168,7.68149725 70.6364573,7.64658856 70.5816571,7.63084959 C70.5197821,7.61307894 70.4916136,7.61771285 70.5073389,7.64307706 C70.5212656,7.66554218 70.6965301,7.70755688 70.8968183,7.73644307 C71.0971102,7.76532851 71.2796121,7.79485179 71.3023896,7.80204828 C71.3251596,7.80924927 71.3484546,7.81660055 71.3541471,7.81839294 C71.3598471,7.8201801 71.3644971,7.80719141 71.3644971,7.78951648 L71.3644971,7.78951648 Z M10.9736562,7.42134812 C11.0476002,7.37935776 11.0445364,7.37390963 10.9450452,7.37047742 C10.883762,7.36835644 10.822106,7.39125306 10.8080315,7.42134812 C10.7774802,7.48667218 10.8586205,7.48667218 10.9736562,7.42134812 L10.9736562,7.42134812 Z M71.0746545,7.16695675 C71.0746545,7.14745652 70.8876593,7.11030229 70.6591111,7.08439072 C70.144321,7.02602762 70.0518783,7.02484988 70.1045103,7.07732434 C70.1266,7.09934902 70.3492599,7.13390626 70.5993121,7.15412061 C70.849365,7.17433346 71.0586105,7.19346878 71.0643052,7.1966423 C71.0699977,7.1998203 71.0746545,7.18645848 71.0746545,7.166959 L71.0746545,7.16695675 Z M8.6506474,6.68522662 C8.66237665,6.65992262 8.6448499,6.63921962 8.61168491,6.63921962 C8.57852667,6.63921962 8.55139693,6.65992262 8.55139693,6.68522662 C8.55139693,6.71053062 8.56893043,6.73123362 8.59035942,6.73123362 C8.61178841,6.73123362 8.63891816,6.71053062 8.6506474,6.68522662 Z M14.1903947,6.60598202 C14.1605042,6.59003402 14.1247915,6.59199402 14.1110327,6.61033202 C14.097274,6.62867802 14.1217292,6.64172702 14.1653777,6.63932902 C14.2136147,6.63666902 14.2234254,6.62359802 14.1903947,6.60597502 L14.1903947,6.60598202 Z M7.76468092,6.55307551 C7.76468092,6.52412047 7.73207318,6.50079338 7.69222045,6.50122965 C7.63029447,6.50190334 7.62878922,6.50945558 7.6818682,6.55307551 C7.76000993,6.61728103 7.76468092,6.61728103 7.76468092,6.55307551 L7.76468092,6.55307551 Z M7.9474929,6.48467639 C7.9474929,6.47128639 7.92499344,6.46033139 7.8974929,6.46033139 C7.86999326,6.46033139 7.8474929,6.48664039 7.8474929,6.51879639 C7.8474929,6.55095439 7.86999326,6.56190939 7.8974929,6.54314239 C7.92499344,6.52437739 7.9474929,6.49806639 7.9474929,6.48467639 L7.9474929,6.48467639 Z M10.2904544,6.19008774 C10.3473876,6.17421941 10.5243996,6.14573253 10.6838135,6.1267834 C10.843226,6.10783353 11.0388709,6.07269079 11.1185771,6.04869125 C11.1982834,6.02469171 11.2634988,6.00660775 11.2634988,6.00850633 C11.2634988,6.02433054 11.5471188,5.93599325 11.687911,5.87631782 C11.9015237,5.78577537 11.9150146,5.71623168 11.7189662,5.71623168 C11.6177515,5.71623168 11.5740445,5.69755548 11.5740445,5.65430696 C11.5740445,5.59082017 11.7593627,5.56572142 12.0669774,5.58754869 C12.2009896,5.59705653 12.5833492,5.52590514 12.6708899,5.47517149 C12.7362764,5.43727996 12.5273197,5.39455338 12.2547458,5.39008399 C12.0774196,5.38716023 11.9263239,5.41624158 11.7396692,5.48917415 C11.5943927,5.54593928 11.4371395,5.59266715 11.3902181,5.59301411 C11.3222658,5.59353755 11.3171418,5.60136441 11.3650368,5.63157115 C11.3981096,5.65243381 11.440033,5.66033844 11.4582003,5.64914439 C11.4763683,5.63794959 11.4912325,5.64637018 11.4912325,5.66782357 C11.4912325,5.70478862 11.4005981,5.73088713 11.0843427,5.78500143 C11.0085799,5.7979632 10.9365312,5.83470915 10.9242335,5.86666043 C10.9059522,5.91415925 10.8900192,5.91514854 10.8368495,5.87209668 C10.782389,5.82799422 10.7757852,5.83000945 10.7962092,5.88448492 C10.8140487,5.93207496 10.7966592,5.94768382 10.7315008,5.94264164 C10.6824995,5.93885047 10.5805798,5.95260188 10.5050121,5.97319833 C10.4097344,5.99916973 10.3494456,5.99560961 10.3083336,5.96159151 C10.2749909,5.9340027 10.2490484,5.93035884 10.2490484,5.95326664 C10.2490484,5.99880781 9.93356101,6.1290611 9.82325179,6.1290611 C9.7841588,6.1290611 9.75217506,6.15445821 9.75217506,6.18550095 C9.75217506,6.22752238 9.80769905,6.23900208 9.96955725,6.23044017 C10.0891177,6.22411407 10.2335212,6.20596206 10.2904544,6.19009073 L10.2904544,6.19008774 Z M11.9937669,4.69704753 C11.9638944,4.68377153 11.9197674,4.69914753 11.8957059,4.73124253 C11.8649799,4.77220853 11.8811462,4.77939153 11.9500194,4.75537753 C12.0060084,4.73585653 12.0247779,4.71083253 11.9937669,4.69704753 Z M62.0066293,4.54371621 C62.0066293,4.52094321 61.9500208,4.49703221 61.880924,4.49057721 C61.8090223,4.48385721 61.7658351,4.50156321 61.7799343,4.53198321 C61.8088026,4.59425821 62.0067507,4.60450721 62.0066293,4.54371621 Z M12.1123246,4.2715333 L12.2158403,4.2682388 L12.1192561,4.22822725 C12.0101476,4.18302278 11.8224812,4.2178453 11.8224812,4.28329197 C11.8224812,4.30715347 11.8641249,4.31490525 11.9156454,4.30063501 C11.9668854,4.28644151 12.0553906,4.27334877 12.1123246,4.27153175 L12.1123246,4.2715333 Z M61.6754616,4.29082597 C61.6754616,4.26552297 61.6475121,4.24481997 61.6133556,4.24481997 C61.5791954,4.24481997 61.5512466,4.26552297 61.5512466,4.29082597 C61.5512466,4.31612797 61.5791954,4.33683097 61.6133556,4.33683097 C61.6475121,4.33683097 61.6754616,4.31612797 61.6754616,4.29082597 Z M61.848851,4.2941439 C61.8189613,4.2781959 61.7832486,4.2801589 61.7694898,4.2984939 C61.7557273,4.3168439 61.7801871,4.3298909 61.8238356,4.3274929 C61.8720725,4.3248529 61.8818795,4.3117609 61.848851,4.2941389 L61.848851,4.2941439 Z M12.8239926,4.21158012 C12.7941021,4.19562712 12.7583894,4.19759512 12.7446299,4.21593012 C12.7308719,4.23427512 12.7553271,4.24732712 12.7989756,4.24492412 C12.8472119,4.24228412 12.8570234,4.22919712 12.8239926,4.21157512 L12.8239926,4.21158012 Z M8.19592957,4.15619976 C8.19592957,4.12870168 8.17342941,4.10620112 8.14592912,4.10620112 C8.11842973,4.10620112 8.09592957,4.12870168 8.09592957,4.15619976 C8.09592957,4.18370146 8.11842973,4.20620112 8.14592912,4.20620112 C8.17342941,4.20620112 8.19592957,4.18370146 8.19592957,4.15619976 Z M9.25530172,4.03922375 C9.25530172,3.99297071 9.17754024,4.03352578 9.15526825,4.09139985 C9.13346125,4.14805505 9.13951975,4.15061092 9.19224474,4.10698253 C9.22692547,4.07828778 9.25530172,4.04779315 9.25530172,4.03922375 Z M9.69234402,4.04427865 C9.69234402,4.01022017 9.68257402,3.98235394 9.67064702,3.98235394 C9.65871302,3.98235394 9.63465002,4.01022017 9.61717102,4.04427865 C9.59969402,4.07833713 9.60945102,4.10620261 9.63886802,4.10620261 C9.66828102,4.10620261 9.69234402,4.07833713 9.69234402,4.04427865 Z M63.8777512,2.64283585 C63.8478607,2.62688385 63.8121479,2.62885185 63.7983892,2.64718585 C63.7846304,2.66553085 63.8090864,2.67858285 63.8527349,2.67617985 C63.9009719,2.67353985 63.9107834,2.66045285 63.8777512,2.64283085 L63.8777512,2.64283585 Z M25.7646555,1.79721013 C25.7794907,1.77607304 25.7724005,1.74831673 25.7488929,1.73552695 C25.7253878,1.72273268 25.6940588,1.7400285 25.6792729,1.77395537 C25.6501247,1.84083851 25.7205667,1.86002543 25.7646555,1.79721013 Z M6.10021544,19.514994 C6.07638569,19.4866126 6.07314494,19.4628261 6.09301544,19.4621359 C6.11288368,19.461463 6.09429794,19.4406975 6.05171145,19.4160302 C5.94246723,19.3527498 6.0392487,19.2985046 6.25335789,19.3030069 C6.36518285,19.3053549 6.3920831,19.3152112 6.33617061,19.3333371 C6.25727664,19.3589136 6.19846616,19.4640121 6.26370939,19.4628276 C6.38528585,19.4606142 6.47308682,19.4066622 6.45414333,19.3457956 C6.43564833,19.2863677 6.44058708,19.2868903 6.49262807,19.3498634 C6.56334779,19.4354407 6.8784362,19.4511872 6.90567244,19.3705055 C6.91950618,19.3295235 6.93634143,19.3298016 6.98746066,19.3718664 C7.06806389,19.438179 7.11562887,19.5993061 7.04716739,19.5741251 C7.02049365,19.5643144 7.00470541,19.5312639 7.01208316,19.500681 C7.0214649,19.4617942 7.00245991,19.4658628 6.94887093,19.5142163 C6.88767769,19.5694291 6.79886047,19.5816693 6.50789356,19.5749813 C6.27651338,19.5696646 6.12773068,19.5477745 6.10021694,19.5150037 L6.10021544,19.514994 Z M5.53181911,19.4239999 C5.47666188,19.3900125 5.50318712,19.2982601 5.56816935,19.2982601 C5.61540209,19.2982601 5.65686882,19.4148315 5.61812833,19.4387032 C5.60095484,19.4492856 5.5621161,19.4426664 5.53181911,19.4239999 Z M6.40788709,19.0918462 C6.36208986,19.0187304 6.3668741,19.0085608 6.44968533,19.0029922 C6.50111806,18.9995375 6.57114854,18.9936698 6.60530878,18.9899609 C6.715762,18.9779667 6.73654449,19.01569 6.66369776,19.0959447 C6.57167204,19.1973282 6.47296907,19.1957474 6.40788709,19.0918469 L6.40788709,19.0918462 Z M31.4903941,18.8027338 C31.4903941,18.7893428 31.5128934,18.7630338 31.5403937,18.7442668 C31.567894,18.7255008 31.5903941,18.7364568 31.5903941,18.7686128 C31.5903941,18.8007688 31.567894,18.8270798 31.5403937,18.8270798 C31.5128934,18.8270798 31.4903941,18.8161238 31.4903941,18.8027338 Z M31.976226,18.7685184 C32.0043127,18.7307894 32.0377237,18.7138264 32.0504722,18.7308244 C32.0632207,18.7478224 32.04024,18.7786924 31.9994047,18.7994244 C31.9403932,18.8293844 31.9356367,18.8230434 31.976226,18.7685184 Z M9.75217506,18.6427897 C9.75217506,18.6228648 9.78091355,18.5827816 9.81603829,18.5537174 C9.86568903,18.5126344 9.89095502,18.5118926 9.92955976,18.5503824 C9.9681645,18.5888728 9.9654705,18.6085563 9.91745326,18.6388236 C9.83937154,18.6880408 9.75217506,18.6901338 9.75217506,18.6427867 L9.75217506,18.6427897 Z M56.4996974,18.2749072 C56.4996974,18.2474069 56.5265444,18.2249077 56.5593644,18.2249077 C56.5921769,18.2249077 56.6305446,18.2474069 56.6446184,18.2749072 C56.6586921,18.3024075 56.6318451,18.3249077 56.5849514,18.3249077 C56.5380622,18.3249077 56.4996974,18.3024075 56.4996974,18.2749072 Z M55.7957927,18.2357518 C55.7957927,18.1729038 55.9070259,18.1665068 55.9354036,18.2277218 C55.9465584,18.2517828 55.9197039,18.2750838 55.8757366,18.2794998 C55.8317656,18.2839198 55.7957927,18.2642288 55.7957927,18.2357518 Z M14.733093,18.1557289 C14.6958308,18.0589164 14.7526073,18.0447119 14.8957215,18.1150415 C14.9703765,18.1517283 15.0128242,18.1845388 14.9900505,18.1879531 C14.815548,18.2141189 14.752524,18.2062158 14.733093,18.1557289 L14.733093,18.1557289 Z M50.538216,18.0684932 C50.538216,18.040993 50.549168,18.0184937 50.562562,18.0184937 C50.57595,18.0184937 50.602264,18.040993 50.621028,18.0684932 C50.639793,18.0959935 50.628838,18.1184937 50.596683,18.1184937 C50.564529,18.1184937 50.538216,18.0959935 50.538216,18.0684932 Z M49.9462217,18.0240346 C49.9224417,17.9952599 49.9178957,17.9605688 49.9361187,17.9469423 C49.9855227,17.9099959 50.0393947,17.9643345 50.0127157,18.0242006 C49.9940097,18.066151 49.9810067,18.0661189 49.9462217,18.0239763 L49.9462217,18.0240346 Z M50.0920999,18.0359552 C50.0073327,18.0002017 50.0334327,17.9409921 50.1231544,17.9655168 C50.1686996,17.9779662 50.2059656,18.0053579 50.2059656,18.0263861 C50.2059656,18.0676493 50.1736766,18.0703626 50.0920999,18.0359552 Z M69.9428868,17.8258409 C69.8952431,17.7783398 69.9127331,17.7295145 69.9773913,17.7295145 C70.0115515,17.7295145 70.0395003,17.7573799 70.0395003,17.7914384 C70.0395003,17.855904 69.9905305,17.8733419 69.9428868,17.8258409 Z M18.5562904,17.5868825 C18.5451371,17.5628205 18.5723899,17.5394795 18.6168506,17.5350145 C18.6613121,17.5305545 18.6868706,17.5502355 18.6736481,17.5787625 C18.6443096,17.6420575 18.5838056,17.6462435 18.5562904,17.5868825 Z M18.9295232,17.5020412 C18.9425432,17.468213 18.9838105,17.4391032 19.0212272,17.437355 C19.058644,17.4356052 19.1731052,17.425808 19.2755851,17.4155808 C19.4099633,17.4021703 19.4445961,17.408634 19.3998038,17.438769 C19.3485624,17.4732417 19.3479579,17.480664 19.3963538,17.4811852 C19.4286151,17.4815591 19.4434006,17.493394 19.4292083,17.507544 C19.4150168,17.5216939 19.2914551,17.540083 19.1546274,17.5484101 C18.9473732,17.5610219 18.909802,17.5532781 18.9295232,17.5020412 L18.9295232,17.5020412 Z M2.03170031,17.4021045 C2.00107782,17.3527049 2.07897055,17.3037592 2.13412253,17.3377436 C2.18042902,17.3662776 2.15002928,17.4405352 2.09204079,17.4405352 C2.0719558,17.4405352 2.04480206,17.4232409 2.03170031,17.4021045 Z M2.42503938,16.3283356 C2.42503938,16.3069704 2.44959938,16.2781388 2.47961638,16.2642678 C2.51091238,16.2498045 2.52016638,16.2663765 2.50131338,16.3031142 C2.46461238,16.3746327 2.42503938,16.3877179 2.42503938,16.3283356 L2.42503938,16.3283356 Z M2.73046769,16.3070806 C2.73046769,16.2740155 2.75157569,16.2567201 2.77737469,16.2686442 C2.80317369,16.2805684 2.80998869,16.3076213 2.79251969,16.3287615 C2.74787669,16.3827828 2.73046769,16.3767003 2.73046769,16.3070806 Z M74.884021,10.9278355 C74.8498585,10.9003363 74.8405435,10.8778355 74.863321,10.8778355 C74.886091,10.8778355 74.9326735,10.9003363 74.9668285,10.9278355 C75.000991,10.9553356 75.010306,10.9778355 74.987536,10.9778355 C74.964766,10.9778355 74.9181835,10.9553356 74.884021,10.9278355 Z M6.85374545,7.86562279 C6.85374545,7.84171879 6.89101069,7.82216279 6.93655818,7.82216279 C6.98210416,7.82216279 7.01937015,7.84546279 7.01937015,7.87393879 C7.01937015,7.90241679 6.98210416,7.92197379 6.93655818,7.91739879 C6.89101069,7.91281879 6.85374545,7.88952479 6.85374545,7.86562279 Z M8.58769617,7.24786499 L8.49060195,7.16947747 L8.73838162,7.13668197 C8.87466033,7.11864511 9.08396127,7.10283212 9.20349398,7.10154222 C9.3230267,7.10024859 9.42084841,7.08656074 9.42087616,7.07111713 C9.42091591,7.03897518 9.66754659,7.1029884 9.70604033,7.14513546 C9.72002857,7.16045045 9.67399209,7.16210151 9.60373886,7.14880699 C9.52510438,7.13392421 9.42960766,7.14910609 9.35530144,7.18824041 C9.28891446,7.22322612 9.13677625,7.25364896 9.01721654,7.25584589 C8.89765608,7.25804432 8.79983361,7.27478605 8.79983361,7.29304798 C8.79983361,7.35222764 8.68726389,7.32825204 8.58769617,7.24786723 L8.58769617,7.24786499 Z M8.06573758,7.27085583 C8.07949633,7.25251083 8.11520907,7.25054983 8.14509881,7.26650583 C8.1781303,7.28412883 8.1683188,7.29721083 8.12008331,7.29985983 C8.07643483,7.30224983 8.05197884,7.28920883 8.06573758,7.27086383 L8.06573758,7.27085583 Z M7.31949927,6.68980902 C7.31710927,6.64629056 7.33015027,6.62190742 7.34849527,6.63562518 C7.36684127,6.64934369 7.36880227,6.68495004 7.35285527,6.71475074 C7.33523127,6.74768309 7.32214927,6.73790082 7.31950027,6.68980902 L7.31949927,6.68980902 Z M8.44331672,6.34282859 C8.45488096,6.32417408 8.42621222,6.27635896 8.37960874,6.23657558 C8.29623276,6.16539877 8.29898001,6.16230227 8.55107218,6.0434382 C8.85469234,5.90027773 8.88264633,5.89705411 8.88264633,6.0052027 C8.88264633,6.05607469 8.85483109,6.08801176 8.81018585,6.08839835 C8.75145637,6.08892179 8.74882612,6.09604052 8.79630486,6.12600274 C8.8285241,6.14633598 8.88908058,6.15640614 8.93087507,6.14838411 C8.9726688,6.14035909 9.00686429,6.15272115 9.00686429,6.17586674 C9.00686429,6.19900784 8.94630856,6.21463539 8.87229483,6.21059671 C8.79828111,6.20655878 8.70045939,6.20542217 8.6549119,6.20807674 C8.58592167,6.21208476 8.58246642,6.21957064 8.63420966,6.25290977 C8.68728789,6.28711108 8.68578339,6.29301843 8.62385741,6.29355906 C8.58400392,6.29393294 8.55139693,6.3127714 8.55139693,6.33547506 C8.55139693,6.35818096 8.52234794,6.3767577 8.48684445,6.3767577 C8.45134021,6.3767577 8.43175322,6.36149431 8.44331672,6.34283906 L8.44331672,6.34282859 Z M8.97275655,6.00970051 C8.93113007,5.9840514 8.93275232,5.96683186 8.9805153,5.92730796 C9.04751578,5.87186787 9.10090751,5.92029392 9.05479678,5.99467266 C9.03835753,6.02119441 9.00216779,6.02782186 8.97275655,6.00970051 L8.97275655,6.00970051 Z M7.53694649,4.28004082 C7.522872,4.25253946 7.53930899,4.23004082 7.57346623,4.23004082 C7.60762647,4.23004082 7.64709071,4.25253946 7.66116521,4.28004082 C7.6752397,4.30754128 7.65881021,4.33004082 7.62464622,4.33004082 C7.59048598,4.33004082 7.55102174,4.30754128 7.53694649,4.28004082 Z M8.38498548,4.0864975 C8.44461647,4.01486454 8.46858496,4.00740857 8.46858496,4.0604932 C8.46858496,4.0807726 8.43800072,4.10906207 8.40061923,4.12336383 C8.3437895,4.14510661 8.34122825,4.13906766 8.38498548,4.0864975 Z M66.9042965,3.44036671 C66.9528305,3.37711759 67.2179486,3.32755582 67.2714341,3.37172573 C67.3022179,3.39714187 67.3087654,3.42072066 67.2859946,3.42411781 C67.0631329,3.4574131 66.8854107,3.46497657 66.9042965,3.44036671 L66.9042965,3.44036671 Z M66.6529221,3.38203704 C66.6185016,3.35292104 66.6442431,3.33687604 66.725384,3.33687604 C66.7945978,3.33687604 66.8512288,3.35757904 66.8512288,3.38288204 C66.8512288,3.44164104 66.7227328,3.44109504 66.6529221,3.38198204 L66.6529221,3.38203704 Z M65.5883439,3.31664963 C65.4110829,3.27708835 64.9807886,3.24871139 64.1767693,3.22356927 C63.9014227,3.21495576 63.6363045,3.18665582 63.5876205,3.16068068 C63.5346405,3.13240991 63.3491476,3.11802739 63.1255652,3.12485524 C62.9201132,3.13113647 62.7520225,3.13204874 62.7520225,3.12686672 C62.7520225,3.1125029 62.9929412,2.99153087 63.0215499,2.99153087 C63.0354107,2.99153087 63.0352352,3.01010836 63.0211749,3.03281202 C63.0062439,3.0568983 63.0483512,3.07409616 63.1222487,3.07409616 C63.1919094,3.07409616 63.2489101,3.05551867 63.2489101,3.03281202 C63.2489101,3.01010836 63.2686456,2.99153087 63.2927604,2.99153087 C63.3168788,2.99153087 63.3226178,3.01475273 63.3055156,3.04313343 C63.2825251,3.08128892 63.2899809,3.08384478 63.3341236,3.05292991 C63.3669623,3.02993462 63.4310963,3.01325197 63.4766423,3.01585943 C63.5221913,3.01845417 63.6583777,3.02334082 63.7792822,3.02670352 C63.9001867,3.03006099 63.9904581,3.04674439 63.9798816,3.063774 C63.9693059,3.08080287 64.0753416,3.09201561 64.2155203,3.08869329 C64.3556983,3.08533582 64.502999,3.09996062 64.5428502,3.12110893 C64.5912117,3.14678047 64.6153122,3.1445454 64.6153122,3.11440147 C64.6153122,3.08955472 64.6378377,3.08310673 64.6653627,3.10007054 C64.6928944,3.11703435 64.8745639,3.13597974 65.0690733,3.14217648 C65.2635865,3.14836798 65.4227304,3.15563775 65.4227304,3.15832896 C65.4227304,3.1610284 65.5158947,3.16923886 65.6297641,3.17659987 C65.7436298,3.18395788 65.8414523,3.19409235 65.8471433,3.19912406 C65.8568588,3.20770766 65.8995188,3.22021329 65.971362,3.23553726 C66.0043095,3.24256625 65.8099508,3.36246374 65.7746843,3.35687045 C65.7632956,3.3550459 65.6794516,3.33695296 65.5883566,3.31662346 L65.5883439,3.31664963 Z M63.9113947,3.12285861 C63.9113947,3.09629161 63.8752312,3.07455261 63.8310262,3.07455261 C63.7868242,3.07455261 63.740583,3.09629161 63.7282672,3.12285861 C63.7159477,3.14943061 63.7521187,3.17116461 63.8086319,3.17116461 C63.8651534,3.17116461 63.9113947,3.14943061 63.9113947,3.12285861 Z M66.1262047,2.99088555 C66.1119007,2.96781025 66.0828525,2.95961698 66.061653,2.97268045 C66.0404528,2.98574466 66.0231053,2.97785499 66.0231053,2.95515133 C66.0231053,2.87522266 66.089913,2.87395595 66.1393882,2.95296038 C66.1669125,2.99690282 66.1810597,3.0328524 66.1708237,3.0328524 C66.1605885,3.0328524 66.1405087,3.01397207 66.1262047,2.99090051 L66.1262047,2.99088555 Z M65.2398393,2.82987143 C65.1961938,2.78634923 65.1518388,2.75935938 65.1412773,2.76988567 C65.1307195,2.78041945 65.0313446,2.79525811 64.9204443,2.80287111 C64.7283484,2.8160587 64.4901687,2.73100784 64.5505647,2.67079626 C64.5989044,2.62259679 64.8848524,2.63387833 64.9473138,2.68644475 C65.0112648,2.74026742 65.1277893,2.74205309 65.1799818,2.68998916 C65.2239235,2.64618206 65.4351354,2.65578786 65.4643517,2.70292476 C65.5041264,2.76708753 65.4450234,2.90896933 65.3785195,2.90896933 C65.3458975,2.90896933 65.2834915,2.87336297 65.2398393,2.82984451 L65.2398393,2.82987143 Z M65.6671996,2.86133367 C65.6495664,2.83288343 65.6557779,2.82483298 65.6825986,2.84136159 C65.7073179,2.85659807 65.7392483,2.85017551 65.7535486,2.82710021 C65.7921323,2.76485844 65.8436806,2.77628281 65.8436806,2.84706854 C65.8436806,2.91978949 65.7101266,2.93058274 65.6671996,2.86133367 Z M17.257899,2.56462225 C17.2716578,2.54627225 17.3073705,2.54430925 17.337261,2.56027225 C17.3702917,2.57789425 17.360481,2.59097525 17.3122447,2.59362725 C17.2685955,2.59601725 17.2441403,2.58297725 17.257899,2.56462825 L17.257899,2.56462225 Z M25.6117244,1.39024532 C25.6117244,1.36274815 25.6226804,1.34024758 25.6360704,1.34024758 C25.6494614,1.34024758 25.6757704,1.36274815 25.6945374,1.39024532 C25.7133044,1.41774792 25.7023474,1.44024758 25.6701914,1.44024758 C25.6380354,1.44024758 25.6117244,1.41774792 25.6117244,1.39024532 Z M26.5762359,1.38570799 C26.5093974,1.3367458 26.5253822,1.26638704 26.5989849,1.28557395 C26.6459206,1.29781637 26.6760339,1.2809752 26.6803816,1.24006195 C26.6841766,1.20434193 26.6903881,1.14725227 26.6941839,1.11319379 C26.6979789,1.07913531 26.7352448,1.04895101 26.7769966,1.04611025 C26.8187476,1.04326126 26.8668818,1.03711388 26.8839615,1.03242539 C26.901042,1.02772942 26.970915,1.00891938 27.0392347,0.990608093 C27.1911607,0.949897491 27.2736809,0.889083211 27.2433659,0.840178593 C27.2308859,0.8200465 27.2574877,0.803575467 27.3024809,0.803575467 C27.3474734,0.803575467 27.3937364,0.826793589 27.4052871,0.855178023 C27.4198784,0.891032636 27.4367294,0.893260229 27.4604954,0.862491171 C27.5212858,0.783775382 27.6480606,0.759206048 27.7149298,0.813189489 C27.768611,0.856518019 27.7736533,0.855437498 27.7442945,0.806878348 C27.717371,0.762351897 27.7262278,0.754907143 27.781139,0.775916365 C27.820898,0.791131152 27.878597,0.803573971 27.9093597,0.803573971 C27.9401225,0.803573971 27.9765125,0.838819155 27.9902262,0.881900174 C28.0062545,0.932249475 28.0417579,0.95328786 28.0896304,0.9408084 C28.1953189,0.91325249 28.1843854,0.811179495 28.0778389,0.830728331 C27.9936492,0.846172682 27.9935667,0.845606623 28.0743889,0.807320277 C28.1199357,0.785745744 28.2202676,0.766788391 28.2973489,0.765192659 C28.3744293,0.763584963 28.5514413,0.744070524 28.6907065,0.721798326 C29.0516634,0.664083534 29.9590228,0.562942255 30.3724287,0.534345455 C30.5660022,0.520960451 30.8082288,0.502642437 30.9107088,0.493638591 C31.1266142,0.474674508 31.5528481,0.444486463 32.1114869,0.40859521 C32.3278334,0.394694995 32.6259583,0.373090552 32.773985,0.360588659 C33.1297511,0.330539698 33.689794,0.328297897 33.7677324,0.356625501 C33.8018927,0.369039158 33.9090301,0.393458191 34.0058169,0.410896833 C34.1026043,0.428330988 34.1817938,0.456266762 34.1817938,0.472974089 C34.1817938,0.489678425 34.1357296,0.549276838 34.0794293,0.605407115 C33.9960939,0.688497333 33.9383356,0.706712903 33.7687104,0.703404788 C33.644815,0.700959594 33.5660177,0.716290284 33.574324,0.741147508 C33.5820062,0.764135318 33.7317474,0.784476038 33.9070824,0.786342461 C34.1824396,0.789266225 34.3658385,0.842679869 34.303251,0.901694277 C34.2752535,0.928100124 33.7263144,0.954191161 33.7264194,0.929114842 C33.7264562,0.916835783 33.6006992,0.912604178 33.4469275,0.919705707 C33.2931558,0.926809481 33.0604511,0.915750027 32.9298042,0.895081786 C32.7991587,0.874434483 32.683427,0.866354128 32.6726233,0.87712943 C32.6618203,0.887896507 32.5730683,0.900627964 32.4753973,0.905418898 C32.3777271,0.910212075 32.2463331,0.92848298 32.1834097,0.946030795 C32.1153719,0.965006095 32.0476912,0.960303397 32.016417,0.934423978 C31.9874925,0.910493983 31.7836733,0.886618575 31.5634831,0.881368513 C31.2909092,0.874877908 31.1716457,0.857646397 31.1897927,0.827385071 C31.2044537,0.802948092 31.1848202,0.808527171 31.146166,0.839791998 C31.0978172,0.878892661 31.0233168,0.888254686 30.9074373,0.869779642 C30.7968153,0.852144338 30.7479821,0.857431041 30.7651834,0.885179874 C30.7945031,0.932477544 30.7890476,0.933383088 30.4138347,0.943435301 C30.265808,0.947398458 30.1027716,0.965250614 30.0515316,0.983105013 C30.0002916,1.00095941 29.9583673,1.00038289 29.9583673,0.981826334 C29.9583673,0.96326754 29.9117856,0.948081916 29.8548524,0.948081916 C29.7979191,0.948081916 29.7513367,0.962015033 29.7513367,0.979044646 C29.7513367,0.996073512 29.7222884,1.01000663 29.6867842,1.01000663 C29.6512799,1.01000663 29.63196,0.994317011 29.6438504,0.975130093 C29.6725882,0.92877087 29.2472288,0.996854927 29.2163536,1.04355738 C29.1598313,1.1290539 28.3849338,1.21569302 28.3849338,1.1365166 C28.3849338,1.11235331 28.3652013,1.09257117 28.3410836,1.09257117 C28.3169659,1.09257117 28.3079539,1.10986699 28.3210556,1.13100333 C28.3585113,1.19142727 28.2632464,1.22862936 28.2016279,1.17764072 C28.1602909,1.14343568 28.1408652,1.14552793 28.1253477,1.18584446 C28.1119482,1.22065519 28.0438114,1.23655642 27.934184,1.23044419 C27.8404955,1.22522478 27.7638418,1.23830171 27.7638418,1.25950759 C27.7638418,1.32777784 27.5511141,1.28294481 27.5097944,1.20596982 C27.4878216,1.16503638 27.4518419,1.14263632 27.4298391,1.15619331 C27.4078371,1.1697503 27.3993486,1.19619204 27.4109759,1.21494824 C27.4226039,1.23370445 27.4048709,1.25947843 27.3715716,1.27221736 C27.3382717,1.28496004 27.2998312,1.2773246 27.2861474,1.25524682 C27.2709787,1.2307762 27.2179372,1.23918482 27.1502512,1.27678472 C27.0228855,1.34754503 26.6267409,1.42272688 26.5762351,1.38572594 L26.5762359,1.38570799 Z M25.9847826,1.19819754 C25.9847826,1.12568447 26.0179096,1.11500862 26.0652366,1.17226653 C26.0827066,1.19340362 26.0717466,1.22236832 26.0408906,1.23662597 C26.0100316,1.2508881 25.9847826,1.2336349 25.9847826,1.19819754 L25.9847826,1.19819754 Z M26.1394158,1.13963739 C26.1634765,1.10755339 26.2076043,1.09216739 26.237476,1.10544339 C26.268487,1.11922739 26.2497175,1.14425239 26.1937285,1.16377339 C26.1248553,1.18778739 26.1086898,1.18059939 26.1394158,1.13963739 Z M40.4030636,1.02218775 C40.3518237,1.01234122 40.3098994,0.990094327 40.3098994,0.972753854 C40.3098994,0.922198301 40.4898626,0.949680863 40.5076639,1.00295489 C40.5165574,1.02956871 40.5176216,1.04880905 40.5100189,1.04571419 C40.5024289,1.04260886 40.4542939,1.03203502 40.4030546,1.02218775 L40.4030636,1.02218775 Z M39.5438864,0.93982271 C39.6577161,0.87460871 39.7230921,0.87460871 39.6474014,0.93982271 C39.6132411,0.96926171 39.5573429,0.99198171 39.5231834,0.99030671 C39.4822289,0.98830671 39.4892842,0.97111171 39.5438864,0.93982271 Z M39.7947081,0.94120144 C39.7819468,0.91366744 39.8087983,0.90414544 39.8543743,0.92003944 C39.9510575,0.95375044 39.963281,0.99126544 39.8775785,0.99126544 C39.8447646,0.99126544 39.8074738,0.96873544 39.7947081,0.94120144 L39.7947081,0.94120144 Z M34.4642512,0.837841078 C34.3990755,0.772528239 34.42866,0.76799678 34.9404216,0.764922716 C35.240537,0.763098167 35.5276174,0.753640428 35.5783789,0.743858906 C35.6291404,0.734077385 35.6803338,0.741667953 35.6921441,0.760716534 C35.7039543,0.779768106 35.7706346,0.791419789 35.8403215,0.78660717 C36.0287305,0.773605022 36.029626,0.833707429 35.841289,0.851616415 C35.7522378,0.860084113 35.6882268,0.852715631 35.6990418,0.835288954 C35.7330326,0.780454555 35.6692721,0.800799013 35.6043881,0.865491206 C35.5339466,0.935722099 35.3590377,0.948366067 35.320391,0.886021858 C35.303354,0.858535491 35.2674597,0.85917483 35.213576,0.887921183 C35.1219028,0.936836269 35.0355995,0.903595845 35.077745,0.835606754 C35.0961755,0.805875594 35.085953,0.80304904 35.0473655,0.82719813 C35.015381,0.847218058 34.8867306,0.873469865 34.7614776,0.885537306 C34.5822419,0.902800223 34.5189442,0.892648557 34.4642497,0.837834348 L34.4642512,0.837841078 Z M37.7851276,0.894845377 C37.7851276,0.867347302 37.7960826,0.844847641 37.8094736,0.844847641 C37.8228626,0.844847641 37.8491736,0.867347302 37.8679396,0.894845377 C37.8867056,0.922347075 37.8757496,0.944847641 37.8435936,0.944847641 C37.8114376,0.944847641 37.7851276,0.922347075 37.7851276,0.894845377 Z M36.1278805,0.814306498 C36.0905612,0.783909813 36.0854552,0.763392003 36.1150847,0.762905603 C36.1422077,0.762440038 36.1759149,0.785600093 36.1899894,0.814306498 C36.2217609,0.879105305 36.2074262,0.879105305 36.1278805,0.814306498 Z M52.3004607,0.797932828 C52.3218875,0.763371102 52.1641318,0.722715086 52.1321833,0.754571396 C52.0876633,0.798955771 51.9036164,0.807341962 51.9036164,0.764981041 C51.9036164,0.738780082 51.7858064,0.732467445 51.5827207,0.747791406 C51.3337485,0.766580512 51.2293381,0.756897695 51.1169003,0.70460869 C51.0371949,0.667544941 51.0033826,0.645736357 51.0417646,0.656146002 C51.0801474,0.666555647 51.1174133,0.658920212 51.1245758,0.639204625 C51.1317383,0.619480811 51.1655513,0.597303579 51.1997116,0.58992089 C51.2338718,0.582547921 51.2755095,0.557929234 51.292242,0.535221836 C51.3089745,0.512515186 51.3229485,0.534623624 51.3232965,0.584378451 C51.3238965,0.669871239 51.330159,0.671572406 51.437796,0.615508681 C51.5399437,0.562306654 51.5575657,0.563621226 51.6089924,0.628276778 C51.6635137,0.696828189 51.6650999,0.696820712 51.6413474,0.628276778 C51.6220702,0.572522628 51.6392249,0.556033648 51.7165304,0.556033648 C51.7716194,0.556033648 51.8356806,0.588544253 51.8588946,0.628276778 C51.8823179,0.668370474 51.9016574,0.677556774 51.9023564,0.648920343 C51.9036764,0.594860629 52.0278351,0.574432421 52.0278351,0.628276778 C52.0278351,0.645305644 52.1686948,0.658164969 52.3408572,0.656854136 C52.5130204,0.655538069 52.6631779,0.66947268 52.6745486,0.687816866 C52.6859194,0.706156565 52.7351126,0.721162725 52.7838701,0.721162725 C52.8547901,0.721162725 52.8621693,0.731484881 52.8207618,0.772765281 C52.7689398,0.824433641 52.2690507,0.848776402 52.3004607,0.798101075 L52.3004607,0.797932828 Z M52.9801773,0.797207023 C52.9801773,0.778123952 52.994152,0.761249531 53.0112318,0.759702948 C53.0283123,0.758157118 53.1019022,0.749051054 53.174767,0.739470684 C53.3385917,0.717920318 53.3969146,0.78933913 53.2393224,0.818518351 C53.0835182,0.847366538 52.9801773,0.838872019 52.9801773,0.797207023 L52.9801773,0.797207023 Z M49.9989724,0.659077991 C49.9989792,0.63637508 49.9291032,0.617797591 49.8436917,0.617797591 C49.7582728,0.617797591 49.6746995,0.63637508 49.6579678,0.659077991 C49.637687,0.686600999 49.6273048,0.686600999 49.6268181,0.659077991 C49.6259031,0.607358783 49.3778421,0.595123843 49.3778421,0.646802671 C49.3778421,0.667589059 49.3609086,0.674161171 49.3402139,0.661407281 C49.3007767,0.637108638 48.936558,0.598095463 48.5497186,0.576732548 C48.4244672,0.569815716 48.3219865,0.559984842 48.3219865,0.554883585 C48.3219865,0.527214762 47.7771821,0.526787788 47.7423259,0.554434926 C47.6801067,0.603781473 47.26613,0.638208601 47.26613,0.594032105 C47.26613,0.573045316 47.2381805,0.555877365 47.2040203,0.555877365 C47.1698601,0.555877365 47.1419113,0.573801307 47.1419113,0.595715325 C47.1419113,0.620587505 46.8502672,0.628210975 46.3655461,0.616016413 C45.9385449,0.605274761 45.5442348,0.596679195 45.4893011,0.596916985 C45.4343681,0.597290867 45.3272299,0.580220127 45.2512159,0.559294654 C45.1681017,0.536416766 45.1130112,0.536273942 45.1130112,0.558920771 C45.1130112,0.596436919 44.968193,0.590361324 44.9289155,0.551194857 C44.9175823,0.539898362 44.7291553,0.537258002 44.5101876,0.545332375 C44.2462815,0.555063049 44.0923418,0.543687291 44.0535563,0.511595434 C44.0079885,0.473885615 43.9949048,0.475711659 43.994412,0.51983955 C43.993962,0.555636585 43.9825778,0.560620443 43.9633575,0.533371116 C43.9450928,0.507487958 43.7095336,0.488194858 43.373953,0.485109577 C43.0665131,0.482297978 42.1348746,0.46933621 41.3036469,0.456352756 C40.4724191,0.44337304 39.4056937,0.430272187 38.9331458,0.427248971 C38.4605987,0.424257908 38.0739259,0.410128877 38.0738749,0.395922079 C38.0738381,0.381707803 37.9713379,0.370082291 37.8461299,0.370082291 C37.7209227,0.370082291 37.6184847,0.384015407 37.61849,0.401044273 C37.618496,0.418073887 37.598768,0.432007003 37.574651,0.432007003 C37.550534,0.432007003 37.542317,0.413429515 37.5563923,0.390722865 C37.5704668,0.368019206 37.5529348,0.349441717 37.5174298,0.349441717 C37.4819255,0.349460411 37.4528765,0.330882923 37.4528765,0.308180011 C37.4528765,0.285473361 37.4331441,0.266895873 37.4090263,0.266895873 C37.3849093,0.266895873 37.3766931,0.285473361 37.3907676,0.308180011 C37.4058831,0.332562404 37.3602741,0.349204675 37.2793446,0.348828549 C37.1756474,0.348305113 37.1574336,0.338466761 37.2044399,0.308180011 C37.2503129,0.278623081 37.2522456,0.267995088 37.2118349,0.267527735 C37.1696969,0.267004299 37.1713964,0.252659911 37.2192299,0.204971161 C37.2533901,0.170913429 37.3199353,0.143047196 37.3671096,0.143047196 C37.4142823,0.143047196 37.4528788,0.1232172 37.4528788,0.0989806216 C37.4528788,0.0728417274 37.488668,0.0662441916 37.5408763,0.0827660724 C37.6000933,0.101503583 37.6196075,0.0956620379 37.6005418,0.0649079344 C37.584959,0.0397658118 37.5832265,0.0191985191 37.5966868,0.0191985191 C37.6101507,0.0191985191 37.635344,0.0574048545 37.6526705,0.104103564 L37.6841735,0.189012347 L37.7933629,0.103376736 C37.8682144,0.0446801273 37.9116027,0.0323427427 37.9313269,0.0641631599 C37.9517276,0.0970745671 37.9702024,0.0942854014 37.9948196,0.0545715706 C38.0230346,0.00905208768 38.3071188,-0.00115341718 39.5113184,9.90901948e-05 C40.3262982,0.000973975943 41.3284884,0.0135685919 41.738409,0.0281582464 C42.1483296,0.0427449099 42.8284249,0.06545156 43.2497328,0.0786182167 C44.771027,0.126149189 45.1629274,0.143423322 45.1970134,0.164428805 C45.2731969,0.211364556 45.6068433,0.252999397 45.6573625,0.221869168 C45.6885003,0.202685989 45.7247718,0.209535522 45.743359,0.238113627 C45.76735,0.274994174 45.7858547,0.271821405 45.8162792,0.225611734 C45.838705,0.191553255 45.857362,0.18226451 45.8577392,0.204971161 C45.8581892,0.231026305 46.1142586,0.244412057 46.5519255,0.241264712 C47.243603,0.236284593 48.4254572,0.302925463 48.4255449,0.346915765 C48.4255712,0.359668907 48.5699754,0.368011728 48.7464413,0.365463343 C49.0488652,0.361088914 49.7455048,0.4175841 49.8690237,0.456506047 C49.914584,0.470866138 49.915448,0.48630002 49.8735237,0.536671754 C49.8312665,0.587434569 49.8323255,0.595671955 49.8792162,0.580909566 C49.9109045,0.570935121 49.9888302,0.551386285 50.0523867,0.537471863 C50.1235849,0.52188095 50.1587599,0.492828014 50.1440089,0.461778543 C50.1308396,0.434062611 50.1417739,0.440466475 50.1683321,0.476000297 C50.2073629,0.528259391 50.2605664,0.534667742 50.4465101,0.509510664 C50.5772688,0.491820773 50.707735,0.495110194 50.7490217,0.517137873 C50.7889502,0.538446202 50.8740789,0.558404065 50.9382061,0.561496076 C51.0456054,0.566670614 51.0469231,0.568599849 50.9549169,0.585886694 C50.8776317,0.600410545 50.8682672,0.613003666 50.9135132,0.641556347 C50.9775264,0.681956627 50.9237229,0.687017505 50.3405463,0.695437345 C50.1371126,0.698361109 49.9989597,0.68366901 49.9989747,0.65908173 L49.9989724,0.659077991 Z M37.9648151,0.287772741 C37.9517569,0.253842129 37.9243924,0.236363856 37.9040059,0.248927813 C37.8455434,0.284950673 37.8607782,0.349456672 37.9277479,0.349456672 C37.9646854,0.349456672 37.9792361,0.325241779 37.9648151,0.287772741 L37.9648151,0.287772741 Z M35.5498774,0.428891812 C35.5924894,0.349503782 35.5899581,0.34048872 35.5313501,0.362911219 C35.4728884,0.385278383 35.4702544,0.376237897 35.5123721,0.297773358 L35.5612781,0.206665597 L35.6024704,0.298705074 C35.6497316,0.404300792 35.7352376,0.419654663 35.7701996,0.328816099 C35.7833073,0.294757619 35.7790893,0.266892134 35.7608268,0.266892134 C35.7425636,0.266892134 35.7276206,0.238799328 35.7276206,0.204459689 C35.7276206,0.15370136 35.7650336,0.146975209 35.9277513,0.168495903 C36.0644725,0.186576127 36.1278805,0.180197686 36.1278805,0.1483668 C36.1278805,0.122479903 36.1933937,0.101763057 36.2752457,0.101763057 C36.3718576,0.101763057 36.4129179,0.117401079 36.3944671,0.147165141 C36.3744571,0.179441695 36.3914371,0.179168013 36.4532011,0.146215479 C36.5253863,0.107698821 36.5359861,0.110491725 36.5158771,0.162736612 C36.5025661,0.19731778 36.4750366,0.225613978 36.4546996,0.225613978 C36.4343626,0.225613978 36.4177231,0.244191466 36.4177231,0.266894377 C36.4177231,0.352949486 36.4925528,0.303213352 36.5419418,0.184329839 C36.5995441,0.045682881 36.6010268,0.0449201601 36.7048275,0.100304914 C36.757188,0.128244428 36.7733693,0.171868325 36.7590585,0.246506548 C36.74784,0.305016963 36.754956,0.347476589 36.7748715,0.340853629 C36.794787,0.334235904 36.820398,0.346970352 36.8317845,0.369164782 C36.8440305,0.393028974 36.7456133,0.412369183 36.5908666,0.4165133 C36.3516916,0.422914174 36.3253651,0.415017769 36.2840252,0.324565051 C36.2394557,0.227034732 36.0864745,0.184264783 36.0864745,0.26932985 C36.0864745,0.293380235 36.1048937,0.30170137 36.1274065,0.287831066 C36.1505042,0.273594357 36.1580312,0.289401374 36.1446827,0.324068535 C36.130861,0.359982221 36.0938087,0.375119988 36.055552,0.360478737 C36.0129895,0.344197637 36.000292,0.351909344 36.0192662,0.382520624 C36.0525752,0.436255807 35.9149668,0.475932998 35.7552251,0.458652135 C35.6982918,0.452498024 35.6176924,0.463968748 35.5761146,0.484148698 C35.5083754,0.517027204 35.5056491,0.511291094 35.5498774,0.428894803 L35.5498774,0.428891812 Z M36.69998,0.286386289 C36.7143219,0.261083289 36.6938815,0.240380289 36.6545653,0.240380289 C36.6152463,0.240380289 36.5948096,0.261083289 36.6091515,0.286386289 C36.6234934,0.311688289 36.6439301,0.332392289 36.6545653,0.332392289 C36.6652014,0.332392289 36.6856381,0.311688289 36.69998,0.286386289 Z M34.9921213,0.436716431 C34.9796466,0.416591068 35.006573,0.390448435 35.051957,0.378615044 C35.1069185,0.364284116 35.1260248,0.335143691 35.1091715,0.291358277 C35.0952538,0.25519708 35.1013888,0.225610987 35.122802,0.225610987 C35.1795957,0.225610987 35.1704157,0.36046453 35.1094873,0.421213755 C35.0476843,0.482831135 35.0227475,0.486124295 34.9921213,0.436716431 Z M35.2475166,0.321937403 C35.2630526,0.291661869 35.2828706,0.266892134 35.2915546,0.266892134 C35.3002346,0.266892134 35.3200566,0.291661869 35.3355926,0.321937403 C35.3511296,0.352212936 35.3313126,0.376982672 35.2915546,0.376982672 C35.2517986,0.376982672 35.2319806,0.352212936 35.2475166,0.321937403 Z M35.4057102,0.206281994 C35.4499167,0.172946603 35.5269094,0.145080371 35.5768054,0.144357281 C35.6755698,0.142899138 35.7384993,0.205529741 35.6766251,0.243659057 C35.6554248,0.256719531 35.6309396,0.246066862 35.6222126,0.219948158 C35.6102884,0.184283478 35.5843646,0.184213935 35.5178831,0.219574275 C35.3906059,0.287490085 35.3105592,0.277920181 35.4057102,0.206166838 L35.4057102,0.206281994 Z M34.8555043,0.211495256 C34.8692638,0.193150256 34.9049766,0.191188256 34.9348663,0.207145256 C34.9678971,0.224767256 34.9580856,0.237849256 34.9098501,0.240495256 C34.8662016,0.242885256 34.8417456,0.229846256 34.8555043,0.211501256 L34.8555043,0.211495256 Z M37.0388152,0.19551172 C36.9857369,0.151904161 36.9872414,0.144361778 37.0491674,0.14366521 C37.0890202,0.143195617 37.1216279,0.166556026 37.1216279,0.19551172 C37.1216279,0.259716373 37.1169554,0.259716373 37.0388152,0.19551172 Z M36.8164432,0.121446491 C36.7966987,0.0701430414 36.8073202,0.0666091012 36.8741227,0.102255835 C36.9701047,0.153471048 36.9792029,0.184323857 36.8983245,0.184323857 C36.8666002,0.184323857 36.8297542,0.156026911 36.8164432,0.121446491 L36.8164432,0.121446491 Z" id="path2987"></path>
            </g>
        </g>
    </g>
</svg>