<?xml version="1.0" encoding="UTF-8"?>
<svg width="88px" height="108px" viewBox="0 0 88 108" version="1.1" xmlns="http://www.w3.org/2000/svg" xmlns:xlink="http://www.w3.org/1999/xlink">
    <defs>
        <path d="M63.4899103,91 C62.1960016,86.3533437 59.4743887,81.9022434 55.3250719,77.6466988 C47.4572131,69.5774137 38.6406161,72.2840698 34.3143986,69.6779994 C31.4302536,67.9406193 28.3576065,63.7648862 25.0964574,57.1508001 C29.5067813,61.7706834 31.9053843,63.8290804 32.2922662,63.3259906 C32.8725891,62.5713562 30.1059894,56.4615568 26.478191,47.8968832 C24.0596588,42.1871007 24.6089254,32.5548062 28.1259908,19 C27.2267869,29.8724155 28.3783724,38.6507078 31.5807473,45.3348767 C36.3843097,55.3611302 46.874879,64.9129275 48.8318318,65.8291396 C50.7887849,66.745352 43.4953773,62.9873897 41.5309369,52.9523388 C40.22131,46.2623047 40.4324523,39.851064 42.1643636,33.7186161 C42.6568958,42.1716682 43.7976428,48.5829092 45.5866039,52.9523388 C48.2700457,59.506483 52.8306026,59.7699052 56.1196358,64.7239523 C57.5207918,66.8344183 59.3614641,70.4336337 62.4832935,75.5896896 C63.9832251,78.066997 66.1050267,80.9382096 68,84.111183 L63.4899103,91 Z M69.0101381,83 C61.7528708,72.9981366 58.879659,66.4304701 60.3905031,63.297 C62.1340518,59.6809034 66.6742109,53.1931307 68.4615977,47.4101123 C69.6531892,43.5547666 70.1592189,38.4670229 69.9796875,32.1468814 C72.1515601,38.1779258 72.9811157,42.8813023 72.4683546,46.2570111 C71.699213,51.3205743 70.0827425,55.3869172 67.6580274,60.2342783 C63.5816362,68.3835815 71.699213,55.4855964 79.7943334,43.8653261 C85.1910805,36.1184791 87.3105104,27.8300371 86.152623,19 C88.8809358,29.0882705 88.6638531,37.3767125 85.501375,43.8653261 C80.7576578,53.5982463 78.9473463,57.3184874 79.2824584,57.6537868 C79.3421427,57.7135048 81.6287118,56.4091598 84.9969518,55.8844874 C87.2424454,55.5347058 89.5767948,55.4869178 92,55.7411227 C87.6553061,57.4156333 84.5433711,58.8109511 82.6641946,59.9270759 C79.8454298,61.6012634 76.9207314,63.2817636 74.5387379,67.4632428 C73.1901616,69.8306059 73.0198386,72.4048163 74.0277694,75.1858733 L69.0101381,83 Z M37,72 L44.5060578,73.5086939 C49.2506665,74.0136163 53.6285486,77.226494 57.6397045,83.1473271 C59.7416194,86.2499459 61.1950239,89.4928064 62,92.8759078 C62.0107755,92.9215439 60.9424038,94.6295748 58.7948032,98 C58.5858496,95.7968083 57.0796444,92.2999055 54.2761876,87.5092914 C51.8333964,83.3349911 48.2294564,80.1363333 43.4643685,77.9133181 C45.0724123,77.5378845 45.8764344,77.1791497 45.8764344,76.8371136 C45.8764344,76.4950772 42.9176227,74.8827061 37,72 Z" id="path-1"></path>
        <filter x="-23.6%" y="-33.4%" width="148.0%" height="154.0%" filterUnits="objectBoundingBox" id="filter-2">
            <feMorphology radius="0.5" operator="dilate" in="SourceAlpha" result="shadowSpreadOuter1"></feMorphology>
            <feOffset dx="0" dy="0" in="shadowSpreadOuter1" result="shadowOffsetOuter1"></feOffset>
            <feGaussianBlur stdDeviation="4" in="shadowOffsetOuter1" result="shadowBlurOuter1"></feGaussianBlur>
            <feColorMatrix values="0 0 0 0 0   0 0 0 0 0   0 0 0 0 0  0 0 0 0.5 0" type="matrix" in="shadowBlurOuter1"></feColorMatrix>
        </filter>
    </defs>
    <g id="Symbols" stroke="none" stroke-width="1" fill="none" fill-rule="evenodd">
        <g id="Artboard" transform="translate(-14.000000, 0.000000)" fill-rule="nonzero">
            <g id="Combined-Shape">
                <use fill="black" fill-opacity="1" filter="url(#filter-2)" xlink:href="#path-1"></use>
                <use fill="#EDEDED" xlink:href="#path-1"></use>
            </g>
        </g>
    </g>
</svg>